%!PS-Adobe-3.0 EPSF-3.0
%%Creator: inkscape 0.45.1
%%Pages: 1
%%Orientation: Portrait
%%BoundingBox: 13 40 753 540
%%HiResBoundingBox: 13.574447 40.493557 752.96621 539.65266
%%EndComments
%%Page: 1 1
0 612 translate
0.8 -0.8 scale
0 0 0 setrgbcolor
[] 0 setdash
1 setlinewidth
0 setlinejoin
0 setlinecap
gsave [1 0 0 1 0 0] concat
gsave
<<
/ShadingType 2
/ColorSpace /DeviceRGB
/Coords [645.71429 589.50507 132.57143 209.79076]
/Extend [true true]
/Domain [0 1]
/Function <<
/FunctionType 3
/Functions
[
<<
/FunctionType 2
/Domain [0 1]
/C0 [0 0 1]
/C1 [0.22745098 0.22745098 0.49803922]
/N 1
>>
]
/Domain [0 1]
/Bounds [ ]
/Encode [ 0 1 ]
>>
>>
newpath
326.17795 248.13222 moveto
622.40652 248.13222 lineto
622.40652 469.38937 lineto
326.17795 469.38937 lineto
326.17795 248.13222 lineto
closepath
clip
gsave [0.64 0 0 0.64 232.92079 106.73473] concat
shfill
grestore
grestore
0 0 0 setrgbcolor
[] 0 setdash
0.63999999 setlinewidth
0 setlinejoin
0 setlinecap
newpath
326.17795 248.13222 moveto
622.40652 248.13222 lineto
622.40652 469.38937 lineto
326.17795 469.38937 lineto
326.17795 248.13222 lineto
closepath
stroke
0 0 0 setrgbcolor
[] 0 setdash
0.63999999 setlinewidth
0 setlinejoin
0 setlinecap
newpath
308.65796 238.33797 moveto
635.69794 238.33797 lineto
635.69794 480.89798 lineto
308.65796 480.89798 lineto
308.65796 238.33797 lineto
closepath
stroke
gsave
0.81960785 0.8509804 0.86666667 setrgbcolor
newpath
435.07736 309.51285 moveto
509.76547 309.51285 lineto
509.76547 405.39623 lineto
435.07736 405.39623 lineto
435.07736 309.51285 lineto
closepath
fill
grestore
0 0 0 setrgbcolor
[] 0 setdash
0.75 setlinewidth
0 setlinejoin
0 setlinecap
newpath
435.07736 309.51285 moveto
509.76547 309.51285 lineto
509.76547 405.39623 lineto
435.07736 405.39623 lineto
435.07736 309.51285 lineto
closepath
stroke
0 0 0 setrgbcolor
[] 0 setdash
0.75 setlinewidth
0 setlinejoin
0 setlinecap
newpath
444.16043 350.65191 moveto
501.69046 350.65191 500.68116 349.64261 500.68116 349.64261 curveto
stroke
0 0 0 setrgbcolor
[] 0 setdash
0.75 setlinewidth
0 setlinejoin
0 setlinecap
newpath
444.16043 319.00028 moveto
501.69046 319.00028 500.68116 317.99099 500.68116 317.99099 curveto
stroke
0 0 0 setrgbcolor
[] 0 setdash
0.75 setlinewidth
0 setlinejoin
0 setlinecap
newpath
444.16043 366.4777 moveto
501.69046 366.4777 500.68117 365.4684 500.68117 365.4684 curveto
stroke
0 0 0 setrgbcolor
[] 0 setdash
0.75 setlinewidth
0 setlinejoin
0 setlinecap
newpath
444.16043 398.1293 moveto
501.69046 398.1293 500.68116 397.12001 500.68116 397.12001 curveto
stroke
0 0 0 setrgbcolor
[] 0 setdash
0.75 setlinewidth
0 setlinejoin
0 setlinecap
newpath
444.16043 334.8261 moveto
501.69046 334.8261 500.68116 333.8168 500.68116 333.8168 curveto
stroke
0 0 0 setrgbcolor
[] 0 setdash
0.75 setlinewidth
0 setlinejoin
0 setlinecap
newpath
444.16043 382.30349 moveto
501.69046 382.30349 500.68116 381.2942 500.68116 381.2942 curveto
stroke
0 0 0 setrgbcolor
[] 0 setdash
0.75 setlinewidth
0 setlinejoin
0 setlinecap
newpath
444.16043 345.60542 moveto
501.69046 345.60542 500.68116 344.59612 500.68116 344.59612 curveto
stroke
0 0 0 setrgbcolor
[] 0 setdash
0.75 setlinewidth
0 setlinejoin
0 setlinecap
newpath
444.16043 313.95379 moveto
501.69046 313.95379 500.68116 312.94449 500.68116 312.94449 curveto
stroke
0 0 0 setrgbcolor
[] 0 setdash
0.75 setlinewidth
0 setlinejoin
0 setlinecap
newpath
444.16043 361.4312 moveto
501.69046 361.4312 500.68117 360.42191 500.68117 360.42191 curveto
stroke
0 0 0 setrgbcolor
[] 0 setdash
0.75 setlinewidth
0 setlinejoin
0 setlinecap
newpath
444.16043 393.08281 moveto
501.69046 393.08281 500.68116 392.07351 500.68116 392.07351 curveto
stroke
0 0 0 setrgbcolor
[] 0 setdash
0.75 setlinewidth
0 setlinejoin
0 setlinecap
newpath
444.16043 329.77961 moveto
501.69046 329.77961 500.68116 328.77031 500.68116 328.77031 curveto
stroke
0 0 0 setrgbcolor
[] 0 setdash
0.75 setlinewidth
0 setlinejoin
0 setlinecap
newpath
444.16043 377.257 moveto
501.69046 377.257 500.68116 376.2477 500.68116 376.2477 curveto
stroke
gsave
0.17254902 0.9254902 0.074509807 setrgbcolor
newpath
467.10793 455.55739 moveto
456.25832 456.7746 427.20569 447.49147 423.67679 446.31744 curveto
421.52987 459.25056 lineto
415.59648 437.09476 lineto
425.33843 424.94561 lineto
424.28108 438.03036 lineto
424.28108 438.03036 427.42463 438.70138 436.46799 442.27177 curveto
445.38558 445.79249 466.96613 446.19732 466.96613 446.19732 curveto
eofill
grestore
0 0 0 setrgbcolor
[] 0 setdash
0.48591554 setlinewidth
0 setlinejoin
0 setlinecap
newpath
467.10793 455.55739 moveto
456.25832 456.7746 427.20569 447.49147 423.67679 446.31744 curveto
421.52987 459.25056 lineto
415.59648 437.09476 lineto
425.33843 424.94561 lineto
424.28108 438.03036 lineto
424.28108 438.03036 427.42463 438.70138 436.46799 442.27177 curveto
445.38558 445.79249 466.96613 446.19732 466.96613 446.19732 curveto
stroke
gsave
0.17254902 0.9254902 0.074509807 setrgbcolor
newpath
466.2082 455.55739 moveto
477.05781 456.7746 506.11044 447.49147 509.63934 446.31744 curveto
512.77431 459.64577 lineto
521.079 435.8103 lineto
507.9777 424.94561 lineto
509.03505 438.03036 lineto
509.03505 438.03036 505.8915 438.70138 496.84814 442.27177 curveto
487.93055 445.79249 466.35 446.19732 466.35 446.19732 curveto
eofill
grestore
0 0 0 setrgbcolor
[] 0 setdash
0.48591554 setlinewidth
0 setlinejoin
0 setlinecap
newpath
466.2082 455.55739 moveto
477.05781 456.7746 506.11044 447.49147 509.63934 446.31744 curveto
512.77431 459.64577 lineto
521.079 435.8103 lineto
507.9777 424.94561 lineto
509.03505 438.03036 lineto
509.03505 438.03036 505.8915 438.70138 496.84814 442.27177 curveto
487.93055 445.79249 466.35 446.19732 466.35 446.19732 curveto
stroke
gsave [0.9396931 -0.3420189 0 1 0 0] concat
gsave
0.81960785 0.8509804 0.86666667 setrgbcolor
newpath
546.53851 495.75848 moveto
626.01991 495.75848 lineto
626.01991 591.64187 lineto
546.53851 591.64187 lineto
546.53851 495.75848 lineto
closepath
fill
grestore
0 0 0 setrgbcolor
[] 0 setdash
0.77369225 setlinewidth
0 setlinejoin
0 setlinecap
newpath
546.53851 495.75848 moveto
626.01991 495.75848 lineto
626.01991 591.64187 lineto
546.53851 591.64187 lineto
546.53851 495.75848 lineto
closepath
stroke
grestore
0 0 0 setrgbcolor
[] 0 setdash
0.75 setlinewidth
0 setlinejoin
0 setlinecap
newpath
522.66145 346.6651 moveto
580.19148 325.72598 579.18218 325.08403 579.18218 325.08403 curveto
stroke
0 0 0 setrgbcolor
[] 0 setdash
0.75 setlinewidth
0 setlinejoin
0 setlinecap
newpath
522.66145 315.01347 moveto
580.19148 294.07435 579.18218 293.4324 579.18218 293.4324 curveto
stroke
0 0 0 setrgbcolor
[] 0 setdash
0.75 setlinewidth
0 setlinejoin
0 setlinecap
newpath
522.66145 362.49089 moveto
580.19149 341.55176 579.18219 340.90982 579.18219 340.90982 curveto
stroke
0 0 0 setrgbcolor
[] 0 setdash
0.75 setlinewidth
0 setlinejoin
0 setlinecap
newpath
522.66145 394.14249 moveto
580.19148 373.20337 579.18218 372.56142 579.18218 372.56142 curveto
stroke
0 0 0 setrgbcolor
[] 0 setdash
0.75 setlinewidth
0 setlinejoin
0 setlinecap
newpath
522.66145 330.83929 moveto
580.19148 309.90017 579.18218 309.25822 579.18218 309.25822 curveto
stroke
0 0 0 setrgbcolor
[] 0 setdash
0.75 setlinewidth
0 setlinejoin
0 setlinecap
newpath
522.66145 378.31668 moveto
580.19148 357.37756 579.18218 356.73561 579.18218 356.73561 curveto
stroke
0 0 0 setrgbcolor
[] 0 setdash
0.75 setlinewidth
0 setlinejoin
0 setlinecap
newpath
522.66145 341.6186 moveto
580.19148 320.67948 579.18218 320.03753 579.18218 320.03753 curveto
stroke
0 0 0 setrgbcolor
[] 0 setdash
0.75 setlinewidth
0 setlinejoin
0 setlinecap
newpath
522.66145 309.96698 moveto
580.19148 289.02785 579.18218 288.38591 579.18218 288.38591 curveto
stroke
0 0 0 setrgbcolor
[] 0 setdash
0.75 setlinewidth
0 setlinejoin
0 setlinecap
newpath
522.66145 357.44439 moveto
580.19149 336.50526 579.18219 335.86332 579.18219 335.86332 curveto
stroke
0 0 0 setrgbcolor
[] 0 setdash
0.75 setlinewidth
0 setlinejoin
0 setlinecap
newpath
522.66145 389.096 moveto
580.19148 368.15687 579.18218 367.51493 579.18218 367.51493 curveto
stroke
0 0 0 setrgbcolor
[] 0 setdash
0.75 setlinewidth
0 setlinejoin
0 setlinecap
newpath
522.66145 325.79279 moveto
580.19148 304.85367 579.18218 304.21172 579.18218 304.21172 curveto
stroke
0 0 0 setrgbcolor
[] 0 setdash
0.75 setlinewidth
0 setlinejoin
0 setlinecap
newpath
522.66145 373.27019 moveto
580.19148 352.33106 579.18218 351.68912 579.18218 351.68912 curveto
stroke
gsave [0.9396931 0.3420189 0 1 0 0] concat
gsave
0.81960785 0.8509804 0.86666667 setrgbcolor
newpath
380.21991 152.31917 moveto
459.7013 152.31917 lineto
459.7013 248.20255 lineto
380.21991 248.20255 lineto
380.21991 152.31917 lineto
closepath
fill
grestore
0 0 0 setrgbcolor
[] 0 setdash
0.77369225 setlinewidth
0 setlinejoin
0 setlinecap
newpath
380.21991 152.31917 moveto
459.7013 152.31917 lineto
459.7013 248.20255 lineto
380.21991 248.20255 lineto
380.21991 152.31917 lineto
closepath
stroke
grestore
0 0 0 setrgbcolor
[] 0 setdash
0.75 setlinewidth
0 setlinejoin
0 setlinecap
newpath
366.37306 326.80655 moveto
423.90308 347.74568 422.89378 346.36902 422.89378 346.36902 curveto
stroke
0 0 0 setrgbcolor
[] 0 setdash
0.75 setlinewidth
0 setlinejoin
0 setlinecap
newpath
366.37306 295.15492 moveto
423.90308 316.09406 422.89378 314.71739 422.89378 314.71739 curveto
stroke
0 0 0 setrgbcolor
[] 0 setdash
0.75 setlinewidth
0 setlinejoin
0 setlinecap
newpath
366.37306 342.63233 moveto
423.90309 363.57146 422.89379 362.19482 422.89379 362.19482 curveto
stroke
0 0 0 setrgbcolor
[] 0 setdash
0.75 setlinewidth
0 setlinejoin
0 setlinecap
newpath
366.37306 374.28394 moveto
423.90308 395.22308 422.89378 393.84641 422.89378 393.84641 curveto
stroke
0 0 0 setrgbcolor
[] 0 setdash
0.75 setlinewidth
0 setlinejoin
0 setlinecap
newpath
366.37306 310.98074 moveto
423.90308 331.91987 422.89378 330.54321 422.89378 330.54321 curveto
stroke
0 0 0 setrgbcolor
[] 0 setdash
0.75 setlinewidth
0 setlinejoin
0 setlinecap
newpath
366.37306 358.45813 moveto
423.90308 379.39727 422.89378 378.0206 422.89378 378.0206 curveto
stroke
0 0 0 setrgbcolor
[] 0 setdash
0.75 setlinewidth
0 setlinejoin
0 setlinecap
newpath
366.37306 321.76005 moveto
423.90308 342.69919 422.89378 341.32253 422.89378 341.32253 curveto
stroke
0 0 0 setrgbcolor
[] 0 setdash
0.75 setlinewidth
0 setlinejoin
0 setlinecap
newpath
366.37306 290.10842 moveto
423.90308 311.04756 422.89378 309.6709 422.89378 309.6709 curveto
stroke
0 0 0 setrgbcolor
[] 0 setdash
0.75 setlinewidth
0 setlinejoin
0 setlinecap
newpath
366.37306 337.58584 moveto
423.90309 358.52497 422.89379 357.14833 422.89379 357.14833 curveto
stroke
0 0 0 setrgbcolor
[] 0 setdash
0.75 setlinewidth
0 setlinejoin
0 setlinecap
newpath
366.37306 369.23744 moveto
423.90308 390.17658 422.89378 388.79992 422.89378 388.79992 curveto
stroke
0 0 0 setrgbcolor
[] 0 setdash
0.75 setlinewidth
0 setlinejoin
0 setlinecap
newpath
366.37306 305.93424 moveto
423.90308 326.87338 422.89378 325.49672 422.89378 325.49672 curveto
stroke
0 0 0 setrgbcolor
[] 0 setdash
0.75 setlinewidth
0 setlinejoin
0 setlinecap
newpath
366.37306 353.41163 moveto
423.90308 374.35077 422.89378 372.97411 422.89378 372.97411 curveto
stroke
gsave [0.9848079 0.1736475 0 1 0 0] concat
gsave
<<
/ShadingType 2
/ColorSpace /DeviceRGB
/Coords [645.71429 589.50507 132.57143 209.79076]
/Extend [true true]
/Domain [0 1]
/Function <<
/FunctionType 3
/Functions
[
<<
/FunctionType 2
/Domain [0 1]
/C0 [0.6901961 0.6901961 0.87058824]
/C1 [0.22745098 0.22745098 0.49803922]
/N 1
>>
]
/Domain [0 1]
/Bounds [ ]
/Encode [ 0 1 ]
>>
>>
newpath
31.721951 201.21785 moveto
272.36062 201.21785 lineto
272.36062 378.22357 lineto
31.721951 378.22357 lineto
31.721951 201.21785 lineto
closepath
clip
gsave [0.5198984 0 0 0.512 -44.034681 88.099876] concat
shfill
grestore
grestore
0 0 0 setrgbcolor
[] 0 setdash
0.51593405 setlinewidth
0 setlinejoin
0 setlinecap
newpath
31.721951 201.21785 moveto
272.36062 201.21785 lineto
272.36062 378.22357 lineto
31.721951 378.22357 lineto
31.721951 201.21785 lineto
closepath
stroke
grestore
gsave [0.9848079 0.1736475 0 1 0 0] concat
0 0 0 setrgbcolor
[] 0 setdash
0.51593405 setlinewidth
0 setlinejoin
0 setlinecap
newpath
17.489765 192.69673 moveto
283.15783 192.69673 lineto
283.15783 386.74474 lineto
17.489765 386.74474 lineto
17.489765 192.69673 lineto
closepath
stroke
grestore
gsave [0.9848079 -0.1736475 0 1 0 0] concat
gsave
<<
/ShadingType 2
/ColorSpace /DeviceRGB
/Coords [645.71429 589.50507 132.57143 209.79076]
/Extend [true true]
/Domain [0 1]
/Function <<
/FunctionType 3
/Functions
[
<<
/FunctionType 2
/Domain [0 1]
/C0 [0.6901961 0.6901961 0.87058824]
/C1 [0.22745098 0.22745098 0.49803922]
/N 1
>>
]
/Domain [0 1]
/Bounds [ ]
/Encode [ 0 1 ]
>>
>>
newpath
704.03149 370.1694 moveto
944.67017 370.1694 lineto
944.67017 547.17513 lineto
704.03149 547.17513 lineto
704.03149 370.1694 lineto
closepath
clip
gsave [0.5198984 0 0 0.512 628.27477 257.05141] concat
shfill
grestore
grestore
0 0 0 setrgbcolor
[] 0 setdash
0.51593405 setlinewidth
0 setlinejoin
0 setlinecap
newpath
704.03149 370.1694 moveto
944.67017 370.1694 lineto
944.67017 547.17513 lineto
704.03149 547.17513 lineto
704.03149 370.1694 lineto
closepath
stroke
grestore
gsave [0.9848079 -0.1736475 0 1 0 0] concat
0 0 0 setrgbcolor
[] 0 setdash
0.51593405 setlinewidth
0 setlinejoin
0 setlinecap
newpath
689.79926 361.64828 moveto
955.46732 361.64828 lineto
955.46732 555.69629 lineto
689.79926 555.69629 lineto
689.79926 361.64828 lineto
closepath
stroke
grestore
gsave [1 0 0 1 -92.833186 724.0476] concat
gsave
0.15294118 0.58039218 0.83529413 setrgbcolor
newpath
557.13292 -10.861 moveto
496.6439 3.9420548 157.45061 -222.14086 157.45061 -222.14086 curveto
130.53598 -203.30062 lineto
157.45061 -249.0555 lineto
203.20549 -228.86952 lineto
178.98232 -223.4866 lineto
178.98232 -223.4866 314.3077 -147.10647 333.74147 -137.35977 curveto
529.90167 -38.978692 500.27576 -59.980204 554.44145 -56.615878 curveto
eofill
grestore
0 0 0 setrgbcolor
[] 0 setdash
1 setlinewidth
0 setlinejoin
0 setlinecap
newpath
557.13292 -10.861 moveto
496.6439 3.9420548 157.45061 -222.14086 157.45061 -222.14086 curveto
130.53598 -203.30062 lineto
157.45061 -249.0555 lineto
203.20549 -228.86952 lineto
178.98232 -223.4866 lineto
178.98232 -223.4866 314.3077 -147.10647 333.74147 -137.35977 curveto
529.90167 -38.978692 500.27576 -59.980204 554.44145 -56.615878 curveto
stroke
gsave
0.15294118 0.58039218 0.83529413 setrgbcolor
newpath
534.44146 -10.861 moveto
594.93048 3.9420548 934.12377 -222.14086 934.12377 -222.14086 curveto
961.0384 -203.30062 lineto
934.12377 -249.0555 lineto
888.36889 -228.86952 lineto
912.59206 -223.4866 lineto
912.59206 -223.4866 777.26668 -147.10647 757.83291 -137.35977 curveto
561.67271 -38.978692 591.29862 -59.980204 537.13293 -56.615878 curveto
eofill
grestore
0 0 0 setrgbcolor
[] 0 setdash
1 setlinewidth
0 setlinejoin
0 setlinecap
newpath
534.44146 -10.861 moveto
594.93048 3.9420548 934.12377 -222.14086 934.12377 -222.14086 curveto
961.0384 -203.30062 lineto
934.12377 -249.0555 lineto
888.36889 -228.86952 lineto
912.59206 -223.4866 lineto
912.59206 -223.4866 777.26668 -147.10647 757.83291 -137.35977 curveto
561.67271 -38.978692 591.29862 -59.980204 537.13293 -56.615878 curveto
stroke
grestore
gsave
0.81960785 0.8509804 0.86666667 setrgbcolor
newpath
413.81738 90.934174 moveto
513.40153 90.934174 lineto
513.40153 218.77869 lineto
413.81738 218.77869 lineto
413.81738 90.934174 lineto
closepath
fill
grestore
0 0 0 setrgbcolor
[] 0 setdash
1 setlinewidth
0 setlinejoin
0 setlinecap
newpath
413.81738 90.934174 moveto
513.40153 90.934174 lineto
513.40153 218.77869 lineto
413.81738 218.77869 lineto
413.81738 90.934174 lineto
closepath
stroke
0 0 0 setrgbcolor
[] 0 setdash
1 setlinewidth
0 setlinejoin
0 setlinecap
newpath
425.92816 145.78624 moveto
502.63486 145.78624 501.28913 144.44051 501.28913 144.44051 curveto
stroke
0 0 0 setrgbcolor
[] 0 setdash
1 setlinewidth
0 setlinejoin
0 setlinecap
newpath
425.92816 103.58407 moveto
502.63486 103.58407 501.28913 102.23834 501.28913 102.23834 curveto
stroke
0 0 0 setrgbcolor
[] 0 setdash
1 setlinewidth
0 setlinejoin
0 setlinecap
newpath
425.92816 166.88729 moveto
502.63487 166.88729 501.28914 165.54156 501.28914 165.54156 curveto
stroke
0 0 0 setrgbcolor
[] 0 setdash
1 setlinewidth
0 setlinejoin
0 setlinecap
newpath
425.92816 209.08942 moveto
502.63486 209.08942 501.28913 207.74369 501.28913 207.74369 curveto
stroke
0 0 0 setrgbcolor
[] 0 setdash
1 setlinewidth
0 setlinejoin
0 setlinecap
newpath
425.92816 124.68516 moveto
502.63486 124.68516 501.28913 123.33943 501.28913 123.33943 curveto
stroke
0 0 0 setrgbcolor
[] 0 setdash
1 setlinewidth
0 setlinejoin
0 setlinecap
newpath
425.92816 187.98834 moveto
502.63486 187.98834 501.28913 186.64261 501.28913 186.64261 curveto
stroke
0 0 0 setrgbcolor
[] 0 setdash
1 setlinewidth
0 setlinejoin
0 setlinecap
newpath
425.92816 139.05758 moveto
502.63486 139.05758 501.28913 137.71185 501.28913 137.71185 curveto
stroke
0 0 0 setrgbcolor
[] 0 setdash
1 setlinewidth
0 setlinejoin
0 setlinecap
newpath
425.92816 96.855406 moveto
502.63486 96.855406 501.28913 95.509676 501.28913 95.509676 curveto
stroke
0 0 0 setrgbcolor
[] 0 setdash
1 setlinewidth
0 setlinejoin
0 setlinecap
newpath
425.92816 160.15863 moveto
502.63487 160.15863 501.28914 158.8129 501.28914 158.8129 curveto
stroke
0 0 0 setrgbcolor
[] 0 setdash
1 setlinewidth
0 setlinejoin
0 setlinecap
newpath
425.92816 202.36076 moveto
502.63486 202.36076 501.28913 201.01503 501.28913 201.01503 curveto
stroke
0 0 0 setrgbcolor
[] 0 setdash
1 setlinewidth
0 setlinejoin
0 setlinecap
newpath
425.92816 117.9565 moveto
502.63486 117.9565 501.28913 116.61077 501.28913 116.61077 curveto
stroke
0 0 0 setrgbcolor
[] 0 setdash
1 setlinewidth
0 setlinejoin
0 setlinecap
newpath
425.92816 181.25969 moveto
502.63486 181.25969 501.28913 179.91396 501.28913 179.91396 curveto
stroke
gsave
0.81960785 0.8509804 0.86666667 setrgbcolor
newpath
413.81738 491.96222 moveto
513.40153 491.96222 lineto
513.40153 619.80673 lineto
413.81738 619.80673 lineto
413.81738 491.96222 lineto
closepath
fill
grestore
0 0 0 setrgbcolor
[] 0 setdash
1 setlinewidth
0 setlinejoin
0 setlinecap
newpath
413.81738 491.96222 moveto
513.40153 491.96222 lineto
513.40153 619.80673 lineto
413.81738 619.80673 lineto
413.81738 491.96222 lineto
closepath
stroke
0 0 0 setrgbcolor
[] 0 setdash
1 setlinewidth
0 setlinejoin
0 setlinecap
newpath
425.92816 546.81427 moveto
502.63486 546.81427 501.28913 545.46854 501.28913 545.46854 curveto
stroke
0 0 0 setrgbcolor
[] 0 setdash
1 setlinewidth
0 setlinejoin
0 setlinecap
newpath
425.92816 504.6121 moveto
502.63486 504.6121 501.28913 503.26637 501.28913 503.26637 curveto
stroke
0 0 0 setrgbcolor
[] 0 setdash
1 setlinewidth
0 setlinejoin
0 setlinecap
newpath
425.92816 567.91532 moveto
502.63487 567.91532 501.28914 566.56959 501.28914 566.56959 curveto
stroke
0 0 0 setrgbcolor
[] 0 setdash
1 setlinewidth
0 setlinejoin
0 setlinecap
newpath
425.92816 610.11746 moveto
502.63486 610.11746 501.28913 608.77173 501.28913 608.77173 curveto
stroke
0 0 0 setrgbcolor
[] 0 setdash
1 setlinewidth
0 setlinejoin
0 setlinecap
newpath
425.92816 525.71319 moveto
502.63486 525.71319 501.28913 524.36746 501.28913 524.36746 curveto
stroke
0 0 0 setrgbcolor
[] 0 setdash
1 setlinewidth
0 setlinejoin
0 setlinecap
newpath
425.92816 589.01638 moveto
502.63486 589.01638 501.28913 587.67065 501.28913 587.67065 curveto
stroke
0 0 0 setrgbcolor
[] 0 setdash
1 setlinewidth
0 setlinejoin
0 setlinecap
newpath
425.92816 540.08561 moveto
502.63486 540.08561 501.28913 538.73988 501.28913 538.73988 curveto
stroke
0 0 0 setrgbcolor
[] 0 setdash
1 setlinewidth
0 setlinejoin
0 setlinecap
newpath
425.92816 497.88344 moveto
502.63486 497.88344 501.28913 496.53771 501.28913 496.53771 curveto
stroke
0 0 0 setrgbcolor
[] 0 setdash
1 setlinewidth
0 setlinejoin
0 setlinecap
newpath
425.92816 561.18666 moveto
502.63487 561.18666 501.28914 559.84093 501.28914 559.84093 curveto
stroke
0 0 0 setrgbcolor
[] 0 setdash
1 setlinewidth
0 setlinejoin
0 setlinecap
newpath
425.92816 603.3888 moveto
502.63486 603.3888 501.28913 602.04307 501.28913 602.04307 curveto
stroke
0 0 0 setrgbcolor
[] 0 setdash
1 setlinewidth
0 setlinejoin
0 setlinecap
newpath
425.92816 518.98453 moveto
502.63486 518.98453 501.28913 517.6388 501.28913 517.6388 curveto
stroke
0 0 0 setrgbcolor
[] 0 setdash
1 setlinewidth
0 setlinejoin
0 setlinecap
newpath
425.92816 582.28772 moveto
502.63486 582.28772 501.28913 580.94199 501.28913 580.94199 curveto
stroke
gsave
0.17254902 0.9254902 0.074509807 setrgbcolor
newpath
280.9652 367.31466 moveto
318.6457 121.04577 342.8689 123.73723 342.8689 123.73723 curveto
325.3744 121.04577 lineto
356.3262 110.27991 lineto
367.0921 134.50309 lineto
352.289 127.77443 lineto
352.289 127.77443 344.5609 144.99406 336.1402 177.5665 curveto
294.5945 338.27254 302.4969 370.00612 302.4969 370.00612 curveto
eofill
grestore
0 0 0 setrgbcolor
[] 0 setdash
1 setlinewidth
0 setlinejoin
0 setlinecap
newpath
280.9652 367.31466 moveto
318.6457 121.04577 342.8689 123.73723 342.8689 123.73723 curveto
325.3744 121.04577 lineto
356.3262 110.27991 lineto
367.0921 134.50309 lineto
352.289 127.77443 lineto
352.289 127.77443 344.5609 144.99406 336.1402 177.5665 curveto
294.5945 338.27254 302.4969 370.00612 302.4969 370.00612 curveto
stroke
gsave
0.17254902 0.9254902 0.074509807 setrgbcolor
newpath
280.9652 366.66039 moveto
318.6457 612.92929 342.8689 610.23782 342.8689 610.23782 curveto
325.3744 612.92929 lineto
356.3262 623.69514 lineto
367.0921 599.47197 lineto
352.289 606.20063 lineto
352.289 606.20063 344.5609 588.981 336.1402 556.40856 curveto
294.5945 395.70251 302.4969 363.96893 302.4969 363.96893 curveto
eofill
grestore
0 0 0 setrgbcolor
[] 0 setdash
1 setlinewidth
0 setlinejoin
0 setlinecap
newpath
280.9652 366.66039 moveto
318.6457 612.92929 342.8689 610.23782 342.8689 610.23782 curveto
325.3744 612.92929 lineto
356.3262 623.69514 lineto
367.0921 599.47197 lineto
352.289 606.20063 lineto
352.289 606.20063 344.5609 588.981 336.1402 556.40856 curveto
294.5945 395.70251 302.4969 363.96893 302.4969 363.96893 curveto
stroke
grestore
showpage
%%EOF
