%!PS-Adobe-3.0 EPSF-3.0
%%Creator: inkscape 0.45.1
%%Pages: 1
%%Orientation: Portrait
%%BoundingBox: 297 153 643 419
%%HiResBoundingBox: 297.82679 153.29812 642.94223 418.65356
%%EndComments
%%Page: 1 1
0 596 translate
0.8 -0.8 scale
0 0 0 setrgbcolor
[] 0 setdash
1 setlinewidth
0 setlinejoin
0 setlinecap
gsave [1 0 0 1 0 0] concat
gsave
<<
/ShadingType 2
/ColorSpace /DeviceRGB
/Coords [645.71429 589.50507 132.57143 209.79076]
/Extend [true true]
/Domain [0 1]
/Function <<
/FunctionType 3
/Functions
[
<<
/FunctionType 2
/Domain [0 1]
/C0 [0 0 1]
/C1 [0.22745098 0.22745098 0.49803922]
/N 1
>>
]
/Domain [0 1]
/Bounds [ ]
/Encode [ 0 1 ]
>>
>>
newpath
395.77673 234.56512 moveto
785.75131 234.56512 lineto
785.75131 536.34604 lineto
395.77673 536.34604 lineto
395.77673 234.56512 lineto
closepath
clip
gsave [0.8425376 0 0 0.87292 273.00695 41.707766] concat
shfill
grestore
grestore
0 0 0 setrgbcolor
[] 0 setdash
0.85759425 setlinewidth
0 setlinejoin
0 setlinecap
newpath
395.77673 234.56512 moveto
785.75131 234.56512 lineto
785.75131 536.34604 lineto
395.77673 536.34604 lineto
395.77673 234.56512 lineto
closepath
stroke
0 0 0 setrgbcolor
[] 0 setdash
0.85759425 setlinewidth
0 setlinejoin
0 setlinecap
newpath
372.71228 221.20633 moveto
803.24899 221.20633 lineto
803.24899 552.04303 lineto
372.71228 552.04303 lineto
372.71228 221.20633 lineto
closepath
stroke
gsave [1.5032106 0 0 2.1404874 -83.706116 -129.55212] concat
gsave
1 1 0 setrgbcolor
newpath
413.72773 199.91874 moveto
413.21219 200.18623 412.67478 200.38807 412.1155 200.52424 curveto
411.55619 200.66042 410.97258 200.72851 410.36465 200.72851 curveto
408.55058 200.72851 407.11343 200.22271 406.05321 199.21111 curveto
404.99297 198.19465 404.46286 196.8183 404.46286 195.08204 curveto
404.46286 193.34093 404.99297 191.96458 406.05321 190.95297 curveto
407.11343 189.93652 408.55058 189.42829 410.36465 189.42828 curveto
410.97258 189.42829 411.55619 189.49638 412.1155 189.63255 curveto
412.67478 189.76873 413.21219 189.97057 413.72773 190.23805 curveto
413.72773 192.49226 lineto
413.20733 192.13723 412.69424 191.87704 412.18845 191.71167 curveto
411.68264 191.54632 411.15009 191.46365 410.5908 191.46364 curveto
409.58893 191.46365 408.80105 191.78463 408.22717 192.4266 curveto
407.65328 193.06858 407.36633 193.95373 407.36634 195.08204 curveto
407.36633 196.2055 407.65328 197.08822 408.22717 197.73019 curveto
408.80105 198.37217 409.58893 198.69316 410.5908 198.69315 curveto
411.15009 198.69316 411.68264 198.61048 412.18845 198.44512 curveto
412.69424 198.27976 413.20733 198.01957 413.72773 197.66453 curveto
413.72773 199.91874 lineto
fill
grestore
gsave
1 1 0 setrgbcolor
newpath
415.85792 197.33625 moveto
415.85792 192.34635 lineto
418.48418 192.34635 lineto
418.48418 193.16341 lineto
418.48418 193.60599 418.48175 194.16286 418.47689 194.83401 curveto
418.47202 195.5003 418.46959 195.94531 418.46959 196.16902 curveto
418.46959 196.82559 418.48661 197.29978 418.52066 197.59158 curveto
418.5547 197.87853 418.61306 198.08766 418.69574 198.21897 curveto
418.80273 198.38919 418.94134 198.5205 419.11157 198.61291 curveto
419.28665 198.70531 419.48605 198.75152 419.70977 198.75152 curveto
420.25447 198.75152 420.68246 198.54239 420.99372 198.12413 curveto
421.30498 197.70588 421.46061 197.12469 421.46061 196.38058 curveto
421.46061 192.34635 lineto
424.07229 192.34635 lineto
424.07229 200.51695 lineto
421.46061 200.51695 lineto
421.46061 199.33513 lineto
421.06667 199.81175 420.64841 200.16435 420.20584 200.39293 curveto
419.76813 200.61665 419.28422 200.72851 418.7541 200.72851 curveto
417.81059 200.72851 417.0908 200.43913 416.59473 199.86038 curveto
416.10352 199.28163 415.85792 198.44026 415.85792 197.33625 curveto
fill
grestore
gsave
1 1 0 setrgbcolor
newpath
432.666 194.57138 moveto
432.43741 194.46439 432.20883 194.38658 431.98025 194.33793 curveto
431.75653 194.28444 431.53038 194.25769 431.3018 194.25769 curveto
430.63064 194.25769 430.11269 194.47412 429.74793 194.90696 curveto
429.38803 195.33495 429.20808 195.95017 429.20809 196.75264 curveto
429.20809 200.51695 lineto
426.59642 200.51695 lineto
426.59642 192.34635 lineto
429.20809 192.34635 lineto
429.20809 193.68866 lineto
429.54366 193.15369 429.92787 192.76462 430.36073 192.52144 curveto
430.79843 192.27341 431.32125 192.14939 431.92919 192.14938 curveto
432.01672 192.14939 432.11156 192.15425 432.2137 192.16397 curveto
432.31583 192.16884 432.46416 192.18344 432.65871 192.20774 curveto
432.666 194.57138 lineto
fill
grestore
gsave
1 1 0 setrgbcolor
newpath
440.04872 194.57138 moveto
439.82013 194.46439 439.59155 194.38658 439.36297 194.33793 curveto
439.13924 194.28444 438.91309 194.25769 438.68452 194.25769 curveto
438.01336 194.25769 437.4954 194.47412 437.13065 194.90696 curveto
436.77075 195.33495 436.5908 195.95017 436.5908 196.75264 curveto
436.5908 200.51695 lineto
433.97913 200.51695 lineto
433.97913 192.34635 lineto
436.5908 192.34635 lineto
436.5908 193.68866 lineto
436.92638 193.15369 437.31059 192.76462 437.74344 192.52144 curveto
438.18115 192.27341 438.70397 192.14939 439.3119 192.14938 curveto
439.39944 192.14939 439.49428 192.15425 439.59642 192.16397 curveto
439.69854 192.16884 439.84688 192.18344 440.04142 192.20774 curveto
440.04872 194.57138 lineto
fill
grestore
gsave
1 1 0 setrgbcolor
newpath
449.51785 196.40976 moveto
449.51785 197.15387 lineto
443.41179 197.15387 lineto
443.47501 197.76667 443.6963 198.22626 444.07565 198.53266 curveto
444.455 198.83906 444.98511 198.99226 445.666 198.99226 curveto
446.21556 198.99226 446.77729 198.91201 447.35119 198.75152 curveto
447.92993 198.58616 448.52327 198.33812 449.13121 198.00741 curveto
449.13121 200.02088 lineto
448.51354 200.25432 447.89588 200.42941 447.27823 200.54613 curveto
446.66057 200.66771 446.04291 200.72851 445.42526 200.72851 curveto
443.94677 200.72851 442.79656 200.35402 441.97464 199.60505 curveto
441.15758 198.85122 440.74905 197.79585 440.74905 196.43894 curveto
440.74905 195.10637 441.15029 194.05829 441.95276 193.29472 curveto
442.76009 192.53117 443.86895 192.14939 445.27936 192.14938 curveto
446.5633 192.14939 447.58949 192.53603 448.35792 193.30932 curveto
449.1312 194.08261 449.51784 195.11609 449.51785 196.40976 curveto
446.83323 195.54164 moveto
446.83322 195.04557 446.68732 194.64677 446.39552 194.34523 curveto
446.10857 194.03884 445.73165 193.88564 445.26477 193.88563 curveto
444.75896 193.88564 444.348 194.02911 444.03188 194.31605 curveto
443.71575 194.59814 443.51878 195.00666 443.44097 195.54164 curveto
446.83323 195.54164 lineto
fill
grestore
gsave
1 1 0 setrgbcolor
newpath
459.70192 195.54164 moveto
459.70192 200.51695 lineto
457.07565 200.51695 lineto
457.07565 199.70718 lineto
457.07565 196.70887 lineto
457.07565 196.00367 457.05862 195.51733 457.02459 195.24983 curveto
456.9954 194.98235 456.9419 194.78538 456.86409 194.65892 curveto
456.76195 194.48871 456.62335 194.35739 456.44827 194.26498 curveto
456.27318 194.16772 456.07378 194.11909 455.85006 194.11908 curveto
455.30535 194.11909 454.87737 194.33065 454.56611 194.75376 curveto
454.25485 195.17202 454.09922 195.7532 454.09922 196.49731 curveto
454.09922 200.51695 lineto
451.48755 200.51695 lineto
451.48755 192.34635 lineto
454.09922 192.34635 lineto
454.09922 193.54276 lineto
454.49316 193.06615 454.91141 192.71598 455.35399 192.49226 curveto
455.79656 192.26368 456.28534 192.14939 456.82032 192.14938 curveto
457.76382 192.14939 458.47875 192.43877 458.9651 193.01751 curveto
459.4563 193.59627 459.70191 194.43764 459.70192 195.54164 curveto
fill
grestore
gsave
1 1 0 setrgbcolor
newpath
464.99092 190.02649 moveto
464.99092 192.34635 lineto
467.68284 192.34635 lineto
467.68284 194.21392 lineto
464.99092 194.21392 lineto
464.99092 197.67912 lineto
464.99091 198.05848 465.0663 198.31624 465.21707 198.45241 curveto
465.36783 198.58373 465.66693 198.64938 466.11438 198.64938 curveto
467.45669 198.64938 lineto
467.45669 200.51695 lineto
465.21707 200.51695 lineto
464.18601 200.51695 463.45407 200.30296 463.02122 199.87497 curveto
462.59324 199.44213 462.37924 198.71018 462.37925 197.67912 curveto
462.37925 194.21392 lineto
461.08071 194.21392 lineto
461.08071 192.34635 lineto
462.37925 192.34635 lineto
462.37925 190.02649 lineto
464.99092 190.02649 lineto
fill
grestore
gsave
1 1 0 setrgbcolor
newpath
fill
grestore
gsave
1 1 0 setrgbcolor
newpath
474.59867 189.62525 moveto
482.17835 189.62525 lineto
482.17835 191.74815 lineto
477.40731 191.74815 lineto
477.40731 193.77621 lineto
481.89384 193.77621 lineto
481.89384 195.8991 lineto
477.40731 195.8991 lineto
477.40731 200.51695 lineto
474.59867 200.51695 lineto
474.59867 189.62525 lineto
fill
grestore
gsave
1 1 0 setrgbcolor
newpath
484.69518 192.34635 moveto
487.30686 192.34635 lineto
487.30686 200.51695 lineto
484.69518 200.51695 lineto
484.69518 192.34635 lineto
484.69518 189.16566 moveto
487.30686 189.16566 lineto
487.30686 191.29585 lineto
484.69518 191.29585 lineto
484.69518 189.16566 lineto
fill
grestore
gsave
1 1 0 setrgbcolor
newpath
489.83099 189.16566 moveto
492.44266 189.16566 lineto
492.44266 200.51695 lineto
489.83099 200.51695 lineto
489.83099 189.16566 lineto
fill
grestore
gsave
1 1 0 setrgbcolor
newpath
503.1228 196.40976 moveto
503.1228 197.15387 lineto
497.01673 197.15387 lineto
497.07996 197.76667 497.30124 198.22626 497.6806 198.53266 curveto
498.05994 198.83906 498.59006 198.99226 499.27094 198.99226 curveto
499.82051 198.99226 500.38224 198.91201 500.95613 198.75152 curveto
501.53487 198.58616 502.12821 198.33812 502.73615 198.00741 curveto
502.73615 200.02088 lineto
502.11848 200.25432 501.50083 200.42941 500.88318 200.54613 curveto
500.26551 200.66771 499.64785 200.72851 499.0302 200.72851 curveto
497.55171 200.72851 496.40151 200.35402 495.57959 199.60505 curveto
494.76252 198.85122 494.354 197.79585 494.354 196.43894 curveto
494.354 195.10637 494.75523 194.05829 495.5577 193.29472 curveto
496.36503 192.53117 497.4739 192.14939 498.8843 192.14938 curveto
500.16824 192.14939 501.19443 192.53603 501.96286 193.30932 curveto
502.73614 194.08261 503.12279 195.11609 503.1228 196.40976 curveto
500.43817 195.54164 moveto
500.43816 195.04557 500.29226 194.64677 500.00046 194.34523 curveto
499.71351 194.03884 499.33659 193.88564 498.86971 193.88563 curveto
498.36391 193.88564 497.95294 194.02911 497.63682 194.31605 curveto
497.3207 194.59814 497.12373 195.00666 497.04592 195.54164 curveto
500.43817 195.54164 lineto
fill
grestore
grestore
gsave
0.81960785 0.8509804 0.86666667 setrgbcolor
newpath
539.13898 318.28445 moveto
637.46326 318.28445 lineto
637.46326 449.0634 lineto
539.13898 449.0634 lineto
539.13898 318.28445 lineto
closepath
fill
grestore
0 0 0 setrgbcolor
[] 0 setdash
1.0049933 setlinewidth
0 setlinejoin
0 setlinecap
newpath
539.13898 318.28445 moveto
637.46326 318.28445 lineto
637.46326 449.0634 lineto
539.13898 449.0634 lineto
539.13898 318.28445 lineto
closepath
stroke
0 0 0 setrgbcolor
[] 0 setdash
1.0049933 setlinewidth
0 setlinejoin
0 setlinecap
newpath
551.09656 374.39554 moveto
626.83283 374.39554 625.50412 373.01892 625.50412 373.01892 curveto
stroke
0 0 0 setrgbcolor
[] 0 setdash
1.0049933 setlinewidth
0 setlinejoin
0 setlinecap
newpath
551.09656 331.2247 moveto
626.83283 331.2247 625.50412 329.84809 625.50412 329.84809 curveto
stroke
0 0 0 setrgbcolor
[] 0 setdash
1.0049933 setlinewidth
0 setlinejoin
0 setlinecap
newpath
551.09656 395.98093 moveto
626.83283 395.98093 625.50413 394.60431 625.50413 394.60431 curveto
stroke
0 0 0 setrgbcolor
[] 0 setdash
1.0049933 setlinewidth
0 setlinejoin
0 setlinecap
newpath
551.09656 439.15174 moveto
626.83283 439.15174 625.50412 437.77513 625.50412 437.77513 curveto
stroke
0 0 0 setrgbcolor
[] 0 setdash
1.0049933 setlinewidth
0 setlinejoin
0 setlinecap
newpath
551.09656 352.81013 moveto
626.83283 352.81013 625.50412 351.43351 625.50412 351.43351 curveto
stroke
0 0 0 setrgbcolor
[] 0 setdash
1.0049933 setlinewidth
0 setlinejoin
0 setlinecap
newpath
551.09656 417.56632 moveto
626.83283 417.56632 625.50412 416.18971 625.50412 416.18971 curveto
stroke
0 0 0 setrgbcolor
[] 0 setdash
1.0049933 setlinewidth
0 setlinejoin
0 setlinecap
newpath
551.09656 367.51245 moveto
626.83283 367.51245 625.50412 366.13583 625.50412 366.13583 curveto
stroke
0 0 0 setrgbcolor
[] 0 setdash
1.0049933 setlinewidth
0 setlinejoin
0 setlinecap
newpath
551.09656 324.3416 moveto
626.83283 324.3416 625.50412 322.96498 625.50412 322.96498 curveto
stroke
0 0 0 setrgbcolor
[] 0 setdash
1.0049933 setlinewidth
0 setlinejoin
0 setlinecap
newpath
551.09656 389.09782 moveto
626.83283 389.09782 625.50413 387.72121 625.50413 387.72121 curveto
stroke
0 0 0 setrgbcolor
[] 0 setdash
1.0049933 setlinewidth
0 setlinejoin
0 setlinecap
newpath
551.09656 432.26864 moveto
626.83283 432.26864 625.50412 430.89202 625.50412 430.89202 curveto
stroke
0 0 0 setrgbcolor
[] 0 setdash
1.0049933 setlinewidth
0 setlinejoin
0 setlinecap
newpath
551.09656 345.92703 moveto
626.83283 345.92703 625.50412 344.55041 625.50412 344.55041 curveto
stroke
0 0 0 setrgbcolor
[] 0 setdash
1.0049933 setlinewidth
0 setlinejoin
0 setlinecap
newpath
551.09656 410.68322 moveto
626.83283 410.68322 625.50412 409.3066 625.50412 409.3066 curveto
stroke
gsave
0.17254902 0.9254902 0.074509807 setrgbcolor
newpath
583.20919 496.54646 moveto
568.92606 498.20666 530.67928 485.54505 526.03361 483.94375 curveto
523.20726 501.58371 lineto
515.39616 471.36459 lineto
528.2211 454.79391 lineto
526.82914 472.64069 lineto
526.82914 472.64069 530.96751 473.55592 542.87278 478.4257 curveto
554.61247 483.22775 583.02251 483.77991 583.02251 483.77991 curveto
eofill
grestore
0 0 0 setrgbcolor
[] 0 setdash
0.65112245 setlinewidth
0 setlinejoin
0 setlinecap
newpath
583.20919 496.54646 moveto
568.92606 498.20666 530.67928 485.54505 526.03361 483.94375 curveto
523.20726 501.58371 lineto
515.39616 471.36459 lineto
528.2211 454.79391 lineto
526.82914 472.64069 lineto
526.82914 472.64069 530.96751 473.55592 542.87278 478.4257 curveto
554.61247 483.22775 583.02251 483.77991 583.02251 483.77991 curveto
stroke
gsave
0.17254902 0.9254902 0.074509807 setrgbcolor
newpath
582.02472 496.54646 moveto
596.30786 498.20666 634.55463 485.54505 639.2003 483.94375 curveto
643.32738 502.12275 lineto
654.26021 469.61266 lineto
637.01281 454.79391 lineto
638.40478 472.64069 lineto
638.40478 472.64069 634.2664 473.55592 622.36113 478.4257 curveto
610.62144 483.22775 582.2114 483.77991 582.2114 483.77991 curveto
eofill
grestore
0 0 0 setrgbcolor
[] 0 setdash
0.65112245 setlinewidth
0 setlinejoin
0 setlinecap
newpath
582.02472 496.54646 moveto
596.30786 498.20666 634.55463 485.54505 639.2003 483.94375 curveto
643.32738 502.12275 lineto
654.26021 469.61266 lineto
637.01281 454.79391 lineto
638.40478 472.64069 lineto
638.40478 472.64069 634.2664 473.55592 622.36113 478.4257 curveto
610.62144 483.22775 582.2114 483.77991 582.2114 483.77991 curveto
stroke
gsave [0.9356836 -0.3528403 0 1 0 0] concat
gsave
0.81960785 0.8509804 0.86666667 setrgbcolor
newpath
686.64551 559.63202 moveto
791.72836 559.63202 lineto
791.72836 690.41096 lineto
686.64551 690.41096 lineto
686.64551 559.63202 lineto
closepath
fill
grestore
0 0 0 setrgbcolor
[] 0 setdash
1.0389596 setlinewidth
0 setlinejoin
0 setlinecap
newpath
686.64551 559.63202 moveto
791.72836 559.63202 lineto
791.72836 690.41096 lineto
686.64551 690.41096 lineto
686.64551 559.63202 lineto
closepath
stroke
grestore
0 0 0 setrgbcolor
[] 0 setdash
1.0049933 setlinewidth
0 setlinejoin
0 setlinecap
newpath
654.4404 368.95778 moveto
730.17667 340.39813 728.84796 339.52255 728.84796 339.52255 curveto
stroke
0 0 0 setrgbcolor
[] 0 setdash
1.0049933 setlinewidth
0 setlinejoin
0 setlinecap
newpath
654.4404 325.78694 moveto
730.17667 297.22729 728.84796 296.35171 728.84796 296.35171 curveto
stroke
0 0 0 setrgbcolor
[] 0 setdash
1.0049933 setlinewidth
0 setlinejoin
0 setlinecap
newpath
654.4404 390.54317 moveto
730.17668 361.98351 728.84797 361.10794 728.84797 361.10794 curveto
stroke
0 0 0 setrgbcolor
[] 0 setdash
1.0049933 setlinewidth
0 setlinejoin
0 setlinecap
newpath
654.4404 433.71398 moveto
730.17667 405.15433 728.84796 404.27875 728.84796 404.27875 curveto
stroke
0 0 0 setrgbcolor
[] 0 setdash
1.0049933 setlinewidth
0 setlinejoin
0 setlinecap
newpath
654.4404 347.37237 moveto
730.17667 318.81272 728.84796 317.93714 728.84796 317.93714 curveto
stroke
0 0 0 setrgbcolor
[] 0 setdash
1.0049933 setlinewidth
0 setlinejoin
0 setlinecap
newpath
654.4404 412.12856 moveto
730.17667 383.56891 728.84796 382.69333 728.84796 382.69333 curveto
stroke
0 0 0 setrgbcolor
[] 0 setdash
1.0049933 setlinewidth
0 setlinejoin
0 setlinecap
newpath
654.4404 362.07467 moveto
730.17667 333.51502 728.84796 332.63944 728.84796 332.63944 curveto
stroke
0 0 0 setrgbcolor
[] 0 setdash
1.0049933 setlinewidth
0 setlinejoin
0 setlinecap
newpath
654.4404 318.90384 moveto
730.17667 290.34418 728.84796 289.46861 728.84796 289.46861 curveto
stroke
0 0 0 setrgbcolor
[] 0 setdash
1.0049933 setlinewidth
0 setlinejoin
0 setlinecap
newpath
654.4404 383.66006 moveto
730.17668 355.1004 728.84797 354.22483 728.84797 354.22483 curveto
stroke
0 0 0 setrgbcolor
[] 0 setdash
1.0049933 setlinewidth
0 setlinejoin
0 setlinecap
newpath
654.4404 426.83088 moveto
730.17667 398.27122 728.84796 397.39565 728.84796 397.39565 curveto
stroke
0 0 0 setrgbcolor
[] 0 setdash
1.0049933 setlinewidth
0 setlinejoin
0 setlinecap
newpath
654.4404 340.48926 moveto
730.17667 311.92961 728.84796 311.05403 728.84796 311.05403 curveto
stroke
0 0 0 setrgbcolor
[] 0 setdash
1.0049933 setlinewidth
0 setlinejoin
0 setlinecap
newpath
654.4404 405.24546 moveto
730.17667 376.6858 728.84796 375.81023 728.84796 375.81023 curveto
stroke
gsave [0.9356836 0.3528403 0 1 0 0] concat
gsave
0.81960785 0.8509804 0.86666667 setrgbcolor
newpath
466.75467 116.5619 moveto
571.83752 116.5619 lineto
571.83752 247.34084 lineto
466.75467 247.34084 lineto
466.75467 116.5619 lineto
closepath
fill
grestore
0 0 0 setrgbcolor
[] 0 setdash
1.0389596 setlinewidth
0 setlinejoin
0 setlinecap
newpath
466.75467 116.5619 moveto
571.83752 116.5619 lineto
571.83752 247.34084 lineto
466.75467 247.34084 lineto
466.75467 116.5619 lineto
closepath
stroke
grestore
0 0 0 setrgbcolor
[] 0 setdash
1.0049933 setlinewidth
0 setlinejoin
0 setlinecap
newpath
448.6922 341.87196 moveto
524.42846 370.43163 523.09975 368.55395 523.09975 368.55395 curveto
stroke
0 0 0 setrgbcolor
[] 0 setdash
1.0049933 setlinewidth
0 setlinejoin
0 setlinecap
newpath
448.6922 298.70112 moveto
524.42846 327.2608 523.09975 325.38311 523.09975 325.38311 curveto
stroke
0 0 0 setrgbcolor
[] 0 setdash
1.0049933 setlinewidth
0 setlinejoin
0 setlinecap
newpath
448.6922 363.45734 moveto
524.42848 392.017 523.09977 390.13935 523.09977 390.13935 curveto
stroke
0 0 0 setrgbcolor
[] 0 setdash
1.0049933 setlinewidth
0 setlinejoin
0 setlinecap
newpath
448.6922 406.62816 moveto
524.42846 435.18783 523.09975 433.31014 523.09975 433.31014 curveto
stroke
0 0 0 setrgbcolor
[] 0 setdash
1.0049933 setlinewidth
0 setlinejoin
0 setlinecap
newpath
448.6922 320.28655 moveto
524.42846 348.84621 523.09975 346.96853 523.09975 346.96853 curveto
stroke
0 0 0 setrgbcolor
[] 0 setdash
1.0049933 setlinewidth
0 setlinejoin
0 setlinecap
newpath
448.6922 385.04274 moveto
524.42846 413.60242 523.09975 411.72473 523.09975 411.72473 curveto
stroke
0 0 0 setrgbcolor
[] 0 setdash
1.0049933 setlinewidth
0 setlinejoin
0 setlinecap
newpath
448.6922 334.98885 moveto
524.42846 363.54853 523.09975 361.67085 523.09975 361.67085 curveto
stroke
0 0 0 setrgbcolor
[] 0 setdash
1.0049933 setlinewidth
0 setlinejoin
0 setlinecap
newpath
448.6922 291.81801 moveto
524.42846 320.37769 523.09975 318.50001 523.09975 318.50001 curveto
stroke
0 0 0 setrgbcolor
[] 0 setdash
1.0049933 setlinewidth
0 setlinejoin
0 setlinecap
newpath
448.6922 356.57424 moveto
524.42848 385.13391 523.09977 383.25625 523.09977 383.25625 curveto
stroke
0 0 0 setrgbcolor
[] 0 setdash
1.0049933 setlinewidth
0 setlinejoin
0 setlinecap
newpath
448.6922 399.74505 moveto
524.42846 428.30472 523.09975 426.42704 523.09975 426.42704 curveto
stroke
0 0 0 setrgbcolor
[] 0 setdash
1.0049933 setlinewidth
0 setlinejoin
0 setlinecap
newpath
448.6922 313.40344 moveto
524.42846 341.96312 523.09975 340.08544 523.09975 340.08544 curveto
stroke
0 0 0 setrgbcolor
[] 0 setdash
1.0049933 setlinewidth
0 setlinejoin
0 setlinecap
newpath
448.6922 378.15963 moveto
524.42846 406.71931 523.09975 404.84163 523.09975 404.84163 curveto
stroke
gsave [1.5032106 0 0 2.1404874 -70.384731 97.862947] concat
gsave
1 1 0 setrgbcolor
newpath
409.0807 194.45466 moveto
409.66917 194.45466 410.08986 194.34524 410.34277 194.12637 curveto
410.60052 193.90753 410.72941 193.54763 410.72941 193.04669 curveto
410.72941 192.55063 410.60052 192.19559 410.34277 191.98159 curveto
410.08986 191.76761 409.66917 191.66061 409.0807 191.66061 curveto
407.89888 191.66061 lineto
407.89888 194.45466 lineto
409.0807 194.45466 lineto
407.89888 196.39517 moveto
407.89888 200.51695 lineto
405.09024 200.51695 lineto
405.09024 189.62525 lineto
409.37981 189.62525 lineto
410.81452 189.62526 411.86502 189.866 412.53132 190.34747 curveto
413.20247 190.82897 413.53804 191.59009 413.53805 192.63086 curveto
413.53804 193.35066 413.36296 193.94157 413.0128 194.40359 curveto
412.66749 194.86562 412.14467 195.20607 411.44434 195.42492 curveto
411.82854 195.51246 412.17142 195.71186 412.47296 196.02312 curveto
412.77935 196.32952 413.08818 196.79641 413.39945 197.42379 curveto
414.92414 200.51695 lineto
411.93312 200.51695 lineto
410.60539 197.81044 lineto
410.3379 197.26573 410.06555 196.89368 409.78833 196.69428 curveto
409.51598 196.49488 409.15122 196.39518 408.69406 196.39517 curveto
407.89888 196.39517 lineto
fill
grestore
gsave
1 1 0 setrgbcolor
newpath
420.35904 194.01695 moveto
419.78029 194.01695 419.33771 194.22608 419.03132 194.64433 curveto
418.72978 195.05773 418.57902 195.65593 418.57902 196.43894 curveto
418.57902 197.22196 418.72978 197.8226 419.03132 198.24085 curveto
419.33771 198.65425 419.78029 198.86094 420.35904 198.86094 curveto
420.92806 198.86094 421.36334 198.65425 421.66488 198.24085 curveto
421.96641 197.8226 422.11717 197.22196 422.11718 196.43894 curveto
422.11717 195.65593 421.96641 195.05773 421.66488 194.64433 curveto
421.36334 194.22608 420.92806 194.01695 420.35904 194.01695 curveto
420.35904 192.14938 moveto
421.76457 192.14939 422.86128 192.52874 423.64917 193.28743 curveto
424.4419 194.04613 424.83827 195.09664 424.83828 196.43894 curveto
424.83827 197.78126 424.4419 198.83176 423.64917 199.59046 curveto
422.86128 200.34916 421.76457 200.72851 420.35904 200.72851 curveto
418.94864 200.72851 417.84464 200.34916 417.04703 199.59046 curveto
416.25429 198.83176 415.85792 197.78126 415.85792 196.43894 curveto
415.85792 195.09664 416.25429 194.04613 417.04703 193.28743 curveto
417.84464 192.52874 418.94864 192.14939 420.35904 192.14938 curveto
fill
grestore
gsave
1 1 0 setrgbcolor
newpath
426.74232 189.16566 moveto
429.35399 189.16566 lineto
429.35399 200.51695 lineto
426.74232 200.51695 lineto
426.74232 189.16566 lineto
fill
grestore
gsave
1 1 0 setrgbcolor
newpath
431.87812 189.16566 moveto
434.48979 189.16566 lineto
434.48979 200.51695 lineto
431.87812 200.51695 lineto
431.87812 189.16566 lineto
fill
grestore
gsave
1 1 0 setrgbcolor
newpath
fill
grestore
gsave
1 1 0 setrgbcolor
newpath
442.32481 189.62525 moveto
449.9045 189.62525 lineto
449.9045 191.74815 lineto
445.13345 191.74815 lineto
445.13345 193.77621 lineto
449.61999 193.77621 lineto
449.61999 195.8991 lineto
445.13345 195.8991 lineto
445.13345 200.51695 lineto
442.32481 200.51695 lineto
442.32481 189.62525 lineto
fill
grestore
gsave
1 1 0 setrgbcolor
newpath
452.42133 192.34635 moveto
455.033 192.34635 lineto
455.033 200.51695 lineto
452.42133 200.51695 lineto
452.42133 192.34635 lineto
452.42133 189.16566 moveto
455.033 189.16566 lineto
455.033 191.29585 lineto
452.42133 191.29585 lineto
452.42133 189.16566 lineto
fill
grestore
gsave
1 1 0 setrgbcolor
newpath
457.55713 189.16566 moveto
460.16881 189.16566 lineto
460.16881 200.51695 lineto
457.55713 200.51695 lineto
457.55713 189.16566 lineto
fill
grestore
gsave
1 1 0 setrgbcolor
newpath
470.84894 196.40976 moveto
470.84894 197.15387 lineto
464.74288 197.15387 lineto
464.8061 197.76667 465.02739 198.22626 465.40674 198.53266 curveto
465.78609 198.83906 466.3162 198.99226 466.99709 198.99226 curveto
467.54665 198.99226 468.10838 198.91201 468.68228 198.75152 curveto
469.26102 198.58616 469.85436 198.33812 470.4623 198.00741 curveto
470.4623 200.02088 lineto
469.84463 200.25432 469.22697 200.42941 468.60932 200.54613 curveto
467.99166 200.66771 467.374 200.72851 466.75635 200.72851 curveto
465.27786 200.72851 464.12765 200.35402 463.30573 199.60505 curveto
462.48867 198.85122 462.08014 197.79585 462.08014 196.43894 curveto
462.08014 195.10637 462.48138 194.05829 463.28385 193.29472 curveto
464.09118 192.53117 465.20004 192.14939 466.61045 192.14938 curveto
467.89439 192.14939 468.92058 192.53603 469.68901 193.30932 curveto
470.46229 194.08261 470.84893 195.11609 470.84894 196.40976 curveto
468.16432 195.54164 moveto
468.16431 195.04557 468.01841 194.64677 467.72661 194.34523 curveto
467.43966 194.03884 467.06274 193.88564 466.59586 193.88563 curveto
466.09005 193.88564 465.67909 194.02911 465.36297 194.31605 curveto
465.04684 194.59814 464.84987 195.00666 464.77206 195.54164 curveto
468.16432 195.54164 lineto
fill
grestore
grestore
grestore
showpage
%%EOF
