<?xml version="1.0" encoding="UTF-8" standalone="no"?>
<!-- Created with Inkscape (http://www.inkscape.org/) -->
<svg
   xmlns:dc="http://purl.org/dc/elements/1.1/"
   xmlns:cc="http://web.resource.org/cc/"
   xmlns:rdf="http://www.w3.org/1999/02/22-rdf-syntax-ns#"
   xmlns:svg="http://www.w3.org/2000/svg"
   xmlns="http://www.w3.org/2000/svg"
   xmlns:xlink="http://www.w3.org/1999/xlink"
   xmlns:sodipodi="http://sodipodi.sourceforge.net/DTD/sodipodi-0.dtd"
   xmlns:inkscape="http://www.inkscape.org/namespaces/inkscape"
   width="1052.3622"
   height="744.09448"
   id="svg2"
   sodipodi:version="0.32"
   inkscape:version="0.45.1"
   version="1.0"
   sodipodi:docbase="/home/davis/docs/BarCamp"
   sodipodi:docname="rolldesktop.svg"
   inkscape:output_extension="org.inkscape.output.svg.inkscape">
  <defs
     id="defs4">
    <linearGradient
       id="linearGradient12906">
      <stop
         id="stop12908"
         offset="0"
         style="stop-color:#b0b0de;stop-opacity:1;" />
      <stop
         id="stop12910"
         offset="1"
         style="stop-color:#3a3a7f;stop-opacity:0" />
    </linearGradient>
    <linearGradient
       id="linearGradient11928">
      <stop
         id="stop11930"
         offset="0"
         style="stop-color:#0000ff;stop-opacity:1;" />
      <stop
         id="stop11932"
         offset="1"
         style="stop-color:#3a3a7f;stop-opacity:0" />
    </linearGradient>
    <linearGradient
       id="linearGradient11922">
      <stop
         id="stop11924"
         offset="0"
         style="stop-color:#0000ff;stop-opacity:1;" />
      <stop
         id="stop11926"
         offset="1"
         style="stop-color:#3a3a7f;stop-opacity:0" />
    </linearGradient>
    <linearGradient
       id="linearGradient3144">
      <stop
         style="stop-color:#0000ff;stop-opacity:1;"
         offset="0"
         id="stop3146" />
      <stop
         style="stop-color:#3a3a7f;stop-opacity:0"
         offset="1"
         id="stop3148" />
    </linearGradient>
    <linearGradient
       inkscape:collect="always"
       xlink:href="#linearGradient11922"
       id="linearGradient3150"
       x1="645.71429"
       y1="589.50507"
       x2="132.57143"
       y2="209.79076"
       gradientUnits="userSpaceOnUse"
       gradientTransform="matrix(0.64,0,0,0.64,296.86523,89.495421)" />
    <linearGradient
       inkscape:collect="always"
       xlink:href="#linearGradient12906"
       id="linearGradient5106"
       gradientUnits="userSpaceOnUse"
       gradientTransform="matrix(0.5198984,0,0,0.512,684.27826,218.64273)"
       x1="645.71429"
       y1="589.50507"
       x2="132.57143"
       y2="209.79076" />
    <linearGradient
       inkscape:collect="always"
       xlink:href="#linearGradient12906"
       id="linearGradient11935"
       gradientUnits="userSpaceOnUse"
       gradientTransform="matrix(0.5198984,0,0,0.512,11.968856,30.241462)"
       x1="645.71429"
       y1="589.50507"
       x2="132.57143"
       y2="209.79076" />
  </defs>
  <sodipodi:namedview
     id="base"
     pagecolor="#ffffff"
     bordercolor="#666666"
     borderopacity="1.0"
     gridtolerance="10000"
     guidetolerance="10"
     objecttolerance="10"
     inkscape:pageopacity="0.0"
     inkscape:pageshadow="2"
     inkscape:zoom="0.74309018"
     inkscape:cx="478.83196"
     inkscape:cy="526.18109"
     inkscape:document-units="px"
     inkscape:current-layer="layer1"
     width="1052.3622px"
     height="744.09448px"
     inkscape:window-width="1396"
     inkscape:window-height="994"
     inkscape:window-x="2"
     inkscape:window-y="0" />
  <metadata
     id="metadata7">
    <rdf:RDF>
      <cc:Work
         rdf:about="">
        <dc:format>image/svg+xml</dc:format>
        <dc:type
           rdf:resource="http://purl.org/dc/dcmitype/StillImage" />
      </cc:Work>
    </rdf:RDF>
  </metadata>
  <g
     inkscape:label="Layer 1"
     inkscape:groupmode="layer"
     id="layer1">
    <rect
       style="fill:url(#linearGradient3150);fill-opacity:1.0;stroke:#000000;stroke-width:0.63999999;stroke-opacity:1"
       id="rect3143"
       width="296.22858"
       height="221.25716"
       x="390.12238"
       y="230.89293" />
    <rect
       style="fill:none;fill-opacity:1;stroke:#000000;stroke-width:0.63999999;stroke-opacity:1"
       id="rect5090"
       width="327.03998"
       height="242.56001"
       x="372.60239"
       y="221.09865" />
    <rect
       y="143.35945"
       x="87.725471"
       height="177.00572"
       width="240.63867"
       id="rect5096"
       style="fill:url(#linearGradient11935);fill-opacity:1;stroke:#000000;stroke-width:0.51593405;stroke-opacity:1"
       transform="matrix(0.9848079,0.1736475,0,1,0,0)" />
    <rect
       y="134.83832"
       x="73.493271"
       height="194.048"
       width="265.66806"
       id="rect5098"
       style="fill:none;fill-opacity:1;stroke:#000000;stroke-width:0.51593405;stroke-opacity:1"
       transform="matrix(0.9848079,0.1736475,0,1,0,0)" />
    <rect
       style="fill:url(#linearGradient5106);fill-opacity:1;stroke:#000000;stroke-width:0.51593405;stroke-opacity:1"
       id="rect5102"
       width="240.63867"
       height="177.00572"
       x="760.03491"
       y="331.76074"
       transform="matrix(0.9848079,-0.1736475,0,1,0,0)" />
    <rect
       style="fill:none;fill-opacity:1;stroke:#000000;stroke-width:0.51593405;stroke-opacity:1"
       id="rect5104"
       width="265.66806"
       height="194.048"
       x="745.80267"
       y="323.23962"
       transform="matrix(0.9848079,-0.1736475,0,1,0,0)" />
    <flowRoot
       xml:space="preserve"
       id="flowRoot15819"
       transform="matrix(3.8263856,0,0,3.3175736,-1191.4158,-456.97629)"
       style="fill:#ffff00"><flowRegion
         id="flowRegion15821"><rect
           id="rect15823"
           width="259.72623"
           height="25.568903"
           x="403.71951"
           y="185.61583"
           style="fill:#ffff00" /></flowRegion><flowPara
         id="flowPara15825">Current Desktop</flowPara></flowRoot>    <g
       id="g15837"
       transform="translate(-37.680487,641.91402)">
      <path
         sodipodi:nodetypes="ccccccss"
         id="path15831"
         d="M 557.13292,-10.861 C 496.6439,3.9420548 157.45061,-222.14086 157.45061,-222.14086 L 130.53598,-203.30062 L 157.45061,-249.0555 L 203.20549,-228.86952 L 178.98232,-223.4866 C 178.98232,-223.4866 314.3077,-147.10647 333.74147,-137.35977 C 529.90167,-38.978692 500.27576,-59.980204 554.44145,-56.615878"
         style="fill:#2794d5;fill-rule:evenodd;stroke:#000000;stroke-width:1px;stroke-linecap:butt;stroke-linejoin:miter;stroke-opacity:1;fill-opacity:1" />
      <path
         style="fill:#2794d5;fill-rule:evenodd;stroke:#000000;stroke-width:1px;stroke-linecap:butt;stroke-linejoin:miter;stroke-opacity:1;fill-opacity:1"
         d="M 534.44146,-10.861 C 594.93048,3.9420548 934.12377,-222.14086 934.12377,-222.14086 L 961.0384,-203.30062 L 934.12377,-249.0555 L 888.36889,-228.86952 L 912.59206,-223.4866 C 912.59206,-223.4866 777.26668,-147.10647 757.83291,-137.35977 C 561.67271,-38.978692 591.29862,-59.980204 537.13293,-56.615878"
         id="path15835"
         sodipodi:nodetypes="ccccccss" />
    </g>
    <flowRoot
       transform="matrix(1.9255174,0,0,2.1124353,-384.88553,91.021249)"
       id="flowRoot16818"
       xml:space="preserve"
       style="font-size:20px;font-style:normal;font-variant:normal;font-weight:normal;font-stretch:normal;text-align:start;line-height:125%;writing-mode:lr-tb;text-anchor:start;font-family:Bitstream Vera Sans;fill:#ffff00"><flowRegion
         id="flowRegion16820"><rect
           y="185.61583"
           x="403.71951"
           height="25.568903"
           width="259.72623"
           id="rect16822"
           style="font-size:20px;font-style:normal;font-variant:normal;font-weight:normal;font-stretch:normal;text-align:start;line-height:125%;writing-mode:lr-tb;text-anchor:start;font-family:Bitstream Vera Sans;fill:#ffff00" /></flowRegion><flowPara
         id="flowPara16824">Roll Desktop</flowPara></flowRoot>  </g>
</svg>
