%!PS-Adobe-3.0 EPSF-3.0
%%Creator: inkscape 0.45.1
%%Pages: 1
%%Orientation: Portrait
%%BoundingBox: 220 106 560 534
%%HiResBoundingBox: 220.06195 106.30098 559.96989 533.30975
%%EndComments
%%Page: 1 1
0 596 translate
0.8 -0.8 scale
0 0 0 setrgbcolor
[] 0 setdash
1 setlinewidth
0 setlinejoin
0 setlinecap
gsave [1 0 0 1 0 0] concat
gsave
<<
/ShadingType 2
/ColorSpace /DeviceRGB
/Coords [645.71429 589.50507 132.57143 209.79076]
/Extend [true true]
/Domain [0 1]
/Function <<
/FunctionType 3
/Functions
[
<<
/FunctionType 2
/Domain [0 1]
/C0 [0 0 1]
/C1 [0.22745098 0.22745098 0.49803922]
/N 1
>>
]
/Domain [0 1]
/Bounds [ ]
/Encode [ 0 1 ]
>>
>>
newpath
390.12238 230.89293 moveto
686.35095 230.89293 lineto
686.35095 452.15009 lineto
390.12238 452.15009 lineto
390.12238 230.89293 lineto
closepath
clip
gsave [0.64 0 0 0.64 296.86523 89.495421] concat
shfill
grestore
grestore
0 0 0 setrgbcolor
[] 0 setdash
0.63999999 setlinewidth
0 setlinejoin
0 setlinecap
newpath
390.12238 230.89293 moveto
686.35095 230.89293 lineto
686.35095 452.15009 lineto
390.12238 452.15009 lineto
390.12238 230.89293 lineto
closepath
stroke
0 0 0 setrgbcolor
[] 0 setdash
0.63999999 setlinewidth
0 setlinejoin
0 setlinecap
newpath
372.60239 221.09865 moveto
699.64236 221.09865 lineto
699.64236 463.65866 lineto
372.60239 463.65866 lineto
372.60239 221.09865 lineto
closepath
stroke
gsave [1 0 0 1 40.371951 230.12012] concat
gsave
1 1 0 setrgbcolor
newpath
417.8877 192.75075 moveto
417.8877 195.03883 lineto
417.15721 194.35851 416.37661 193.85004 415.5459 193.51344 curveto
414.72232 193.17687 413.84504 193.00857 412.91406 193.00856 curveto
411.08072 193.00857 409.67708 193.57075 408.70312 194.69508 curveto
407.72916 195.81228 407.24218 197.43077 407.24219 199.55055 curveto
407.24218 201.66319 407.72916 203.28168 408.70312 204.40602 curveto
409.67708 205.52321 411.08072 206.0818 412.91406 206.0818 curveto
413.84504 206.0818 414.72232 205.91351 415.5459 205.57692 curveto
416.37661 205.24033 417.15721 204.73187 417.8877 204.05153 curveto
417.8877 206.31813 lineto
417.12857 206.83376 416.3229 207.22047 415.4707 207.47829 curveto
414.62564 207.7361 413.73046 207.865 412.78516 207.865 curveto
410.35742 207.865 408.44531 207.12379 407.04883 205.64137 curveto
405.65234 204.15179 404.9541 202.12152 404.9541 199.55055 curveto
404.9541 196.97244 405.65234 194.94217 407.04883 193.45973 curveto
408.44531 191.97016 410.35742 191.22537 412.78516 191.22536 curveto
413.74478 191.22537 414.64712 191.35428 415.49219 191.61208 curveto
416.34439 191.86274 417.14289 192.2423 417.8877 192.75075 curveto
fill
grestore
gsave
1 1 0 setrgbcolor
newpath
420.9707 202.80543 moveto
420.9707 195.52223 lineto
422.94727 195.52223 lineto
422.94727 202.73024 lineto
422.94726 203.86891 423.16927 204.72471 423.61328 205.29762 curveto
424.05729 205.86338 424.7233 206.14626 425.61133 206.14625 curveto
426.67838 206.14626 427.51985 205.80609 428.13574 205.12575 curveto
428.75878 204.44541 429.0703 203.518 429.07031 202.34352 curveto
429.07031 195.52223 lineto
431.04688 195.52223 lineto
431.04688 207.55348 lineto
429.07031 207.55348 lineto
429.07031 205.70583 lineto
428.59049 206.4363 428.03189 206.98057 427.39453 207.33864 curveto
426.76432 207.68955 426.03027 207.865 425.19238 207.865 curveto
423.81022 207.865 422.76106 207.43532 422.04492 206.57594 curveto
421.32877 205.71657 420.9707 204.45973 420.9707 202.80543 curveto
fill
grestore
gsave
1 1 0 setrgbcolor
newpath
442.11133 197.36989 moveto
441.88931 197.24099 441.64582 197.14789 441.38086 197.09059 curveto
441.12304 197.02615 440.83658 196.99392 440.52148 196.99391 curveto
439.40429 196.99392 438.54492 197.35916 437.94336 198.08961 curveto
437.34895 198.81293 437.05175 199.85492 437.05176 201.21559 curveto
437.05176 207.55348 lineto
435.06445 207.55348 lineto
435.06445 195.52223 lineto
437.05176 195.52223 lineto
437.05176 197.39137 lineto
437.46712 196.66091 438.00781 196.12022 438.67383 195.7693 curveto
439.33984 195.41124 440.14908 195.2322 441.10156 195.23219 curveto
441.23762 195.2322 441.38801 195.24295 441.55273 195.26442 curveto
441.71744 195.27875 441.90006 195.30382 442.10059 195.33961 curveto
442.11133 197.36989 lineto
fill
grestore
gsave
1 1 0 setrgbcolor
newpath
450.79102 197.36989 moveto
450.569 197.24099 450.32551 197.14789 450.06055 197.09059 curveto
449.80273 197.02615 449.51627 196.99392 449.20117 196.99391 curveto
448.08398 196.99392 447.2246 197.35916 446.62305 198.08961 curveto
446.02864 198.81293 445.73144 199.85492 445.73145 201.21559 curveto
445.73145 207.55348 lineto
443.74414 207.55348 lineto
443.74414 195.52223 lineto
445.73145 195.52223 lineto
445.73145 197.39137 lineto
446.14681 196.66091 446.6875 196.12022 447.35352 195.7693 curveto
448.01952 195.41124 448.82877 195.2322 449.78125 195.23219 curveto
449.91731 195.2322 450.0677 195.24295 450.23242 195.26442 curveto
450.39713 195.27875 450.57974 195.30382 450.78027 195.33961 curveto
450.79102 197.36989 lineto
fill
grestore
gsave
1 1 0 setrgbcolor
newpath
462.7041 201.04372 moveto
462.7041 202.01051 lineto
453.61621 202.01051 lineto
453.70215 203.37119 454.11035 204.4096 454.84082 205.12575 curveto
455.57845 205.83473 456.60253 206.18923 457.91309 206.18922 curveto
458.67219 206.18923 459.40624 206.09613 460.11523 205.90993 curveto
460.83137 205.72373 461.54035 205.44443 462.24219 205.07204 curveto
462.24219 206.94118 lineto
461.53319 207.24196 460.8063 207.47112 460.06152 207.62868 curveto
459.31672 207.78623 458.56119 207.865 457.79492 207.865 curveto
455.87565 207.865 454.35384 207.30641 453.22949 206.18922 curveto
452.1123 205.07204 451.55371 203.56097 451.55371 201.65602 curveto
451.55371 199.68663 452.08366 198.12543 453.14355 196.97243 curveto
454.21061 195.81228 455.64648 195.2322 457.45117 195.23219 curveto
459.06965 195.2322 460.34797 195.75499 461.28613 196.80055 curveto
462.23143 197.83897 462.70409 199.25336 462.7041 201.04372 curveto
460.72754 200.46364 moveto
460.71321 199.38227 460.40884 198.51931 459.81445 197.87477 curveto
459.2272 197.23025 458.44661 196.90798 457.47266 196.90797 curveto
456.36979 196.90798 455.48535 197.21951 454.81934 197.84254 curveto
454.16048 198.4656 453.78092 199.34288 453.68066 200.47438 curveto
460.72754 200.46364 lineto
fill
grestore
gsave
1 1 0 setrgbcolor
newpath
475.94922 200.29176 moveto
475.94922 207.55348 lineto
473.97266 207.55348 lineto
473.97266 200.35622 lineto
473.97265 199.21755 473.75064 198.36534 473.30664 197.79958 curveto
472.86262 197.23383 472.19661 196.95095 471.30859 196.95094 curveto
470.24153 196.95095 469.40006 197.29112 468.78418 197.97145 curveto
468.16829 198.6518 467.86035 199.57921 467.86035 200.75368 curveto
467.86035 207.55348 lineto
465.87305 207.55348 lineto
465.87305 195.52223 lineto
467.86035 195.52223 lineto
467.86035 197.39137 lineto
468.333 196.66808 468.88802 196.12739 469.52539 195.7693 curveto
470.16992 195.41124 470.91113 195.2322 471.74902 195.23219 curveto
473.13118 195.2322 474.17675 195.66189 474.88574 196.52125 curveto
475.59471 197.37348 475.94921 198.63031 475.94922 200.29176 curveto
fill
grestore
gsave
1 1 0 setrgbcolor
newpath
481.86816 192.10622 moveto
481.86816 195.52223 lineto
485.93945 195.52223 lineto
485.93945 197.05836 lineto
481.86816 197.05836 lineto
481.86816 203.58961 lineto
481.86816 204.57074 482.00065 205.20094 482.26562 205.48024 curveto
482.53776 205.75954 483.08561 205.89919 483.90918 205.89918 curveto
485.93945 205.89918 lineto
485.93945 207.55348 lineto
483.90918 207.55348 lineto
482.38378 207.55348 481.33105 207.2706 480.75098 206.70485 curveto
480.1709 206.13193 479.88086 205.09352 479.88086 203.58961 curveto
479.88086 197.05836 lineto
478.43066 197.05836 lineto
478.43066 195.52223 lineto
479.88086 195.52223 lineto
479.88086 192.10622 lineto
481.86816 192.10622 lineto
fill
grestore
gsave
1 1 0 setrgbcolor
newpath
fill
grestore
gsave
1 1 0 setrgbcolor
newpath
497.80957 193.2986 moveto
497.80957 205.77028 lineto
500.43066 205.77028 lineto
502.64355 205.77028 504.26203 205.26898 505.28613 204.26637 curveto
506.31737 203.26377 506.83299 201.68109 506.83301 199.51833 curveto
506.83299 197.3699 506.31737 195.79796 505.28613 194.8025 curveto
504.26203 193.79991 502.64355 193.29861 500.43066 193.2986 curveto
497.80957 193.2986 lineto
495.63965 191.5154 moveto
500.09766 191.5154 lineto
503.20572 191.51541 505.48664 192.16352 506.94043 193.45973 curveto
508.39419 194.74881 509.12108 196.76834 509.12109 199.51833 curveto
509.12108 202.28265 508.39061 204.31292 506.92969 205.60915 curveto
505.46874 206.90537 503.1914 207.55348 500.09766 207.55348 curveto
495.63965 207.55348 lineto
495.63965 191.5154 lineto
fill
grestore
gsave
1 1 0 setrgbcolor
newpath
522.77441 201.04372 moveto
522.77441 202.01051 lineto
513.68652 202.01051 lineto
513.77246 203.37119 514.18066 204.4096 514.91113 205.12575 curveto
515.64876 205.83473 516.67285 206.18923 517.9834 206.18922 curveto
518.7425 206.18923 519.47655 206.09613 520.18555 205.90993 curveto
520.90168 205.72373 521.61067 205.44443 522.3125 205.07204 curveto
522.3125 206.94118 lineto
521.6035 207.24196 520.87662 207.47112 520.13184 207.62868 curveto
519.38704 207.78623 518.6315 207.865 517.86523 207.865 curveto
515.94596 207.865 514.42415 207.30641 513.2998 206.18922 curveto
512.18262 205.07204 511.62402 203.56097 511.62402 201.65602 curveto
511.62402 199.68663 512.15397 198.12543 513.21387 196.97243 curveto
514.28092 195.81228 515.71679 195.2322 517.52148 195.23219 curveto
519.13997 195.2322 520.41828 195.75499 521.35645 196.80055 curveto
522.30175 197.83897 522.7744 199.25336 522.77441 201.04372 curveto
520.79785 200.46364 moveto
520.78352 199.38227 520.47916 198.51931 519.88477 197.87477 curveto
519.29752 197.23025 518.51692 196.90798 517.54297 196.90797 curveto
516.4401 196.90798 515.55566 197.21951 514.88965 197.84254 curveto
514.23079 198.4656 513.85123 199.34288 513.75098 200.47438 curveto
520.79785 200.46364 lineto
fill
grestore
gsave
1 1 0 setrgbcolor
newpath
533.68848 195.87672 moveto
533.68848 197.74586 lineto
533.12987 197.45942 532.5498 197.24457 531.94824 197.10133 curveto
531.34667 196.95811 530.72363 196.8865 530.0791 196.88649 curveto
529.09798 196.8865 528.36035 197.03689 527.86621 197.33766 curveto
527.37923 197.63845 527.13574 198.08962 527.13574 198.69118 curveto
527.13574 199.14952 527.31119 199.51117 527.66211 199.77614 curveto
528.01302 200.03396 528.71842 200.28103 529.77832 200.51735 curveto
530.45508 200.66774 lineto
531.85872 200.96853 532.85416 201.39463 533.44141 201.94606 curveto
534.0358 202.49034 534.333 203.25303 534.33301 204.23415 curveto
534.333 205.35134 533.88899 206.23577 533.00098 206.88747 curveto
532.12011 207.53916 530.90624 207.865 529.35938 207.865 curveto
528.71484 207.865 528.04166 207.80055 527.33984 207.67165 curveto
526.64518 207.5499 525.91113 207.3637 525.1377 207.11305 curveto
525.1377 205.07204 lineto
525.86816 205.4516 526.58789 205.73805 527.29688 205.93141 curveto
528.00586 206.11761 528.70768 206.21071 529.40234 206.21071 curveto
530.33333 206.21071 531.04947 206.05316 531.55078 205.73805 curveto
532.05208 205.41579 532.30273 204.96462 532.30273 204.38454 curveto
532.30273 203.84743 532.12011 203.43565 531.75488 203.14918 curveto
531.3968 202.86273 530.60546 202.58702 529.38086 202.32204 curveto
528.69336 202.1609 lineto
527.46875 201.9031 526.58431 201.50922 526.04004 200.97926 curveto
525.49577 200.44216 525.22363 199.70811 525.22363 198.77711 curveto
525.22363 197.64561 525.62467 196.77192 526.42676 196.15602 curveto
527.22884 195.54015 528.36751 195.2322 529.84277 195.23219 curveto
530.57324 195.2322 531.26073 195.28592 531.90527 195.39333 curveto
532.5498 195.50076 533.1442 195.66189 533.68848 195.87672 curveto
fill
grestore
gsave
1 1 0 setrgbcolor
newpath
537.41602 190.83864 moveto
539.40332 190.83864 lineto
539.40332 200.71071 lineto
545.30078 195.52223 lineto
547.8252 195.52223 lineto
541.44434 201.15114 lineto
548.09375 207.55348 lineto
545.51562 207.55348 lineto
539.40332 201.6775 lineto
539.40332 207.55348 lineto
537.41602 207.55348 lineto
537.41602 190.83864 lineto
fill
grestore
gsave
1 1 0 setrgbcolor
newpath
552.20801 192.10622 moveto
552.20801 195.52223 lineto
556.2793 195.52223 lineto
556.2793 197.05836 lineto
552.20801 197.05836 lineto
552.20801 203.58961 lineto
552.208 204.57074 552.34049 205.20094 552.60547 205.48024 curveto
552.8776 205.75954 553.42545 205.89919 554.24902 205.89918 curveto
556.2793 205.89918 lineto
556.2793 207.55348 lineto
554.24902 207.55348 lineto
552.72363 207.55348 551.67089 207.2706 551.09082 206.70485 curveto
550.51074 206.13193 550.2207 205.09352 550.2207 203.58961 curveto
550.2207 197.05836 lineto
548.77051 197.05836 lineto
548.77051 195.52223 lineto
550.2207 195.52223 lineto
550.2207 192.10622 lineto
552.20801 192.10622 lineto
fill
grestore
gsave
1 1 0 setrgbcolor
newpath
563.55176 196.90797 moveto
562.49186 196.90798 561.65397 197.32335 561.03809 198.15407 curveto
560.4222 198.97764 560.11425 200.10915 560.11426 201.5486 curveto
560.11425 202.98806 560.41862 204.12315 561.02734 204.95387 curveto
561.64322 205.77744 562.48469 206.18923 563.55176 206.18922 curveto
564.60448 206.18923 565.43879 205.77386 566.05469 204.94313 curveto
566.67056 204.1124 566.97851 202.98089 566.97852 201.5486 curveto
566.97851 200.12348 566.67056 198.99555 566.05469 198.16481 curveto
565.43879 197.32693 564.60448 196.90798 563.55176 196.90797 curveto
563.55176 195.23219 moveto
565.2705 195.2322 566.62043 195.7908 567.60156 196.90797 curveto
568.58267 198.02517 569.07323 199.57204 569.07324 201.5486 curveto
569.07323 203.518 568.58267 205.06488 567.60156 206.18922 curveto
566.62043 207.30641 565.2705 207.865 563.55176 207.865 curveto
561.82584 207.865 560.47233 207.30641 559.49121 206.18922 curveto
558.51725 205.06488 558.03027 203.518 558.03027 201.5486 curveto
558.03027 199.57204 558.51725 198.02517 559.49121 196.90797 curveto
560.47233 195.7908 561.82584 195.2322 563.55176 195.23219 curveto
fill
grestore
gsave
1 1 0 setrgbcolor
newpath
574.25098 205.74879 moveto
574.25098 212.12965 lineto
572.26367 212.12965 lineto
572.26367 195.52223 lineto
574.25098 195.52223 lineto
574.25098 197.3484 lineto
574.66634 196.63227 575.18912 196.10232 575.81934 195.75856 curveto
576.4567 195.40766 577.21581 195.2322 578.09668 195.23219 curveto
579.55761 195.2322 580.74283 195.81228 581.65234 196.97243 curveto
582.569 198.13259 583.02733 199.65798 583.02734 201.5486 curveto
583.02733 203.43923 582.569 204.96462 581.65234 206.12477 curveto
580.74283 207.28493 579.55761 207.865 578.09668 207.865 curveto
577.21581 207.865 576.4567 207.69313 575.81934 207.34938 curveto
575.18912 206.99847 574.66634 206.46494 574.25098 205.74879 curveto
580.97559 201.5486 moveto
580.97558 200.09483 580.67479 198.95616 580.07324 198.13258 curveto
579.47883 197.30186 578.65885 196.8865 577.61328 196.88649 curveto
576.5677 196.8865 575.74414 197.30186 575.14258 198.13258 curveto
574.54817 198.95616 574.25097 200.09483 574.25098 201.5486 curveto
574.25097 203.00238 574.54817 204.14463 575.14258 204.97536 curveto
575.74414 205.79893 576.5677 206.21071 577.61328 206.21071 curveto
578.65885 206.21071 579.47883 205.79893 580.07324 204.97536 curveto
580.67479 204.14463 580.97558 203.00238 580.97559 201.5486 curveto
fill
grestore
grestore
gsave
0.81960785 0.8509804 0.86666667 setrgbcolor
newpath
408.42957 277.12558 moveto
508.01371 277.12558 lineto
508.01371 404.97009 lineto
408.42957 404.97009 lineto
408.42957 277.12558 lineto
closepath
fill
grestore
0 0 0 setrgbcolor
[] 0 setdash
1 setlinewidth
0 setlinejoin
0 setlinecap
newpath
408.42957 277.12558 moveto
508.01371 277.12558 lineto
508.01371 404.97009 lineto
408.42957 404.97009 lineto
408.42957 277.12558 lineto
closepath
stroke
0 0 0 setrgbcolor
[] 0 setdash
1 setlinewidth
0 setlinejoin
0 setlinecap
newpath
420.54036 331.97764 moveto
497.24706 331.97764 495.90133 330.63191 495.90133 330.63191 curveto
stroke
0 0 0 setrgbcolor
[] 0 setdash
1 setlinewidth
0 setlinejoin
0 setlinecap
newpath
420.54036 289.77547 moveto
497.24706 289.77547 495.90133 288.42974 495.90133 288.42974 curveto
stroke
0 0 0 setrgbcolor
[] 0 setdash
1 setlinewidth
0 setlinejoin
0 setlinecap
newpath
420.54036 353.07869 moveto
497.24707 353.07869 495.90134 351.73296 495.90134 351.73296 curveto
stroke
0 0 0 setrgbcolor
[] 0 setdash
1 setlinewidth
0 setlinejoin
0 setlinecap
newpath
420.54036 395.28083 moveto
497.24706 395.28083 495.90133 393.9351 495.90133 393.9351 curveto
stroke
0 0 0 setrgbcolor
[] 0 setdash
1 setlinewidth
0 setlinejoin
0 setlinecap
newpath
420.54036 310.87656 moveto
497.24706 310.87656 495.90133 309.53083 495.90133 309.53083 curveto
stroke
0 0 0 setrgbcolor
[] 0 setdash
1 setlinewidth
0 setlinejoin
0 setlinecap
newpath
420.54036 374.17975 moveto
497.24706 374.17975 495.90133 372.83402 495.90133 372.83402 curveto
stroke
0 0 0 setrgbcolor
[] 0 setdash
1 setlinewidth
0 setlinejoin
0 setlinecap
newpath
420.54036 325.24898 moveto
497.24706 325.24898 495.90133 323.90325 495.90133 323.90325 curveto
stroke
0 0 0 setrgbcolor
[] 0 setdash
1 setlinewidth
0 setlinejoin
0 setlinecap
newpath
420.54036 283.04681 moveto
497.24706 283.04681 495.90133 281.70108 495.90133 281.70108 curveto
stroke
0 0 0 setrgbcolor
[] 0 setdash
1 setlinewidth
0 setlinejoin
0 setlinecap
newpath
420.54036 346.35003 moveto
497.24707 346.35003 495.90134 345.0043 495.90134 345.0043 curveto
stroke
0 0 0 setrgbcolor
[] 0 setdash
1 setlinewidth
0 setlinejoin
0 setlinecap
newpath
420.54036 388.55217 moveto
497.24706 388.55217 495.90133 387.20644 495.90133 387.20644 curveto
stroke
0 0 0 setrgbcolor
[] 0 setdash
1 setlinewidth
0 setlinejoin
0 setlinecap
newpath
420.54036 304.1479 moveto
497.24706 304.1479 495.90133 302.80217 495.90133 302.80217 curveto
stroke
0 0 0 setrgbcolor
[] 0 setdash
1 setlinewidth
0 setlinejoin
0 setlinecap
newpath
420.54036 367.45109 moveto
497.24706 367.45109 495.90133 366.10536 495.90133 366.10536 curveto
stroke
gsave
0.81960785 0.8509804 0.86666667 setrgbcolor
newpath
408.42957 77.957291 moveto
508.01371 77.957291 lineto
508.01371 205.8018 lineto
408.42957 205.8018 lineto
408.42957 77.957291 lineto
closepath
fill
grestore
0 0 0 setrgbcolor
[] 0 setdash
1 setlinewidth
0 setlinejoin
0 setlinecap
newpath
408.42957 77.957291 moveto
508.01371 77.957291 lineto
508.01371 205.8018 lineto
408.42957 205.8018 lineto
408.42957 77.957291 lineto
closepath
stroke
0 0 0 setrgbcolor
[] 0 setdash
1 setlinewidth
0 setlinejoin
0 setlinecap
newpath
420.54036 132.80935 moveto
497.24706 132.80935 495.90133 131.46362 495.90133 131.46362 curveto
stroke
0 0 0 setrgbcolor
[] 0 setdash
1 setlinewidth
0 setlinejoin
0 setlinecap
newpath
420.54036 90.60718 moveto
497.24706 90.60718 495.90133 89.26145 495.90133 89.26145 curveto
stroke
0 0 0 setrgbcolor
[] 0 setdash
1 setlinewidth
0 setlinejoin
0 setlinecap
newpath
420.54036 153.9104 moveto
497.24707 153.9104 495.90134 152.56467 495.90134 152.56467 curveto
stroke
0 0 0 setrgbcolor
[] 0 setdash
1 setlinewidth
0 setlinejoin
0 setlinecap
newpath
420.54036 196.11254 moveto
497.24706 196.11254 495.90133 194.76681 495.90133 194.76681 curveto
stroke
0 0 0 setrgbcolor
[] 0 setdash
1 setlinewidth
0 setlinejoin
0 setlinecap
newpath
420.54036 111.70827 moveto
497.24706 111.70827 495.90133 110.36254 495.90133 110.36254 curveto
stroke
0 0 0 setrgbcolor
[] 0 setdash
1 setlinewidth
0 setlinejoin
0 setlinecap
newpath
420.54036 175.01146 moveto
497.24706 175.01146 495.90133 173.66573 495.90133 173.66573 curveto
stroke
0 0 0 setrgbcolor
[] 0 setdash
1 setlinewidth
0 setlinejoin
0 setlinecap
newpath
420.54036 126.08069 moveto
497.24706 126.08069 495.90133 124.73496 495.90133 124.73496 curveto
stroke
0 0 0 setrgbcolor
[] 0 setdash
1 setlinewidth
0 setlinejoin
0 setlinecap
newpath
420.54036 83.87852 moveto
497.24706 83.87852 495.90133 82.53279 495.90133 82.53279 curveto
stroke
0 0 0 setrgbcolor
[] 0 setdash
1 setlinewidth
0 setlinejoin
0 setlinecap
newpath
420.54036 147.18174 moveto
497.24707 147.18174 495.90134 145.83601 495.90134 145.83601 curveto
stroke
0 0 0 setrgbcolor
[] 0 setdash
1 setlinewidth
0 setlinejoin
0 setlinecap
newpath
420.54036 189.38388 moveto
497.24706 189.38388 495.90133 188.03815 495.90133 188.03815 curveto
stroke
0 0 0 setrgbcolor
[] 0 setdash
1 setlinewidth
0 setlinejoin
0 setlinecap
newpath
420.54036 104.97961 moveto
497.24706 104.97961 495.90133 103.63388 495.90133 103.63388 curveto
stroke
0 0 0 setrgbcolor
[] 0 setdash
1 setlinewidth
0 setlinejoin
0 setlinecap
newpath
420.54036 168.2828 moveto
497.24706 168.2828 495.90133 166.93707 495.90133 166.93707 curveto
stroke
gsave
0.81960785 0.8509804 0.86666667 setrgbcolor
newpath
408.42957 478.98532 moveto
508.01371 478.98532 lineto
508.01371 606.82983 lineto
408.42957 606.82983 lineto
408.42957 478.98532 lineto
closepath
fill
grestore
0 0 0 setrgbcolor
[] 0 setdash
1 setlinewidth
0 setlinejoin
0 setlinecap
newpath
408.42957 478.98532 moveto
508.01371 478.98532 lineto
508.01371 606.82983 lineto
408.42957 606.82983 lineto
408.42957 478.98532 lineto
closepath
stroke
0 0 0 setrgbcolor
[] 0 setdash
1 setlinewidth
0 setlinejoin
0 setlinecap
newpath
420.54036 533.83739 moveto
497.24706 533.83739 495.90133 532.49166 495.90133 532.49166 curveto
stroke
0 0 0 setrgbcolor
[] 0 setdash
1 setlinewidth
0 setlinejoin
0 setlinecap
newpath
420.54036 491.63522 moveto
497.24706 491.63522 495.90133 490.28949 495.90133 490.28949 curveto
stroke
0 0 0 setrgbcolor
[] 0 setdash
1 setlinewidth
0 setlinejoin
0 setlinecap
newpath
420.54036 554.93844 moveto
497.24707 554.93844 495.90134 553.59271 495.90134 553.59271 curveto
stroke
0 0 0 setrgbcolor
[] 0 setdash
1 setlinewidth
0 setlinejoin
0 setlinecap
newpath
420.54036 597.14058 moveto
497.24706 597.14058 495.90133 595.79485 495.90133 595.79485 curveto
stroke
0 0 0 setrgbcolor
[] 0 setdash
1 setlinewidth
0 setlinejoin
0 setlinecap
newpath
420.54036 512.73631 moveto
497.24706 512.73631 495.90133 511.39058 495.90133 511.39058 curveto
stroke
0 0 0 setrgbcolor
[] 0 setdash
1 setlinewidth
0 setlinejoin
0 setlinecap
newpath
420.54036 576.0395 moveto
497.24706 576.0395 495.90133 574.69377 495.90133 574.69377 curveto
stroke
0 0 0 setrgbcolor
[] 0 setdash
1 setlinewidth
0 setlinejoin
0 setlinecap
newpath
420.54036 527.10873 moveto
497.24706 527.10873 495.90133 525.763 495.90133 525.763 curveto
stroke
0 0 0 setrgbcolor
[] 0 setdash
1 setlinewidth
0 setlinejoin
0 setlinecap
newpath
420.54036 484.90656 moveto
497.24706 484.90656 495.90133 483.56083 495.90133 483.56083 curveto
stroke
0 0 0 setrgbcolor
[] 0 setdash
1 setlinewidth
0 setlinejoin
0 setlinecap
newpath
420.54036 548.20978 moveto
497.24707 548.20978 495.90134 546.86405 495.90134 546.86405 curveto
stroke
0 0 0 setrgbcolor
[] 0 setdash
1 setlinewidth
0 setlinejoin
0 setlinecap
newpath
420.54036 590.41192 moveto
497.24706 590.41192 495.90133 589.06619 495.90133 589.06619 curveto
stroke
0 0 0 setrgbcolor
[] 0 setdash
1 setlinewidth
0 setlinejoin
0 setlinecap
newpath
420.54036 506.00765 moveto
497.24706 506.00765 495.90133 504.66192 495.90133 504.66192 curveto
stroke
0 0 0 setrgbcolor
[] 0 setdash
1 setlinewidth
0 setlinejoin
0 setlinecap
newpath
420.54036 569.31084 moveto
497.24706 569.31084 495.90133 567.96511 495.90133 567.96511 curveto
stroke
gsave
0.17254902 0.9254902 0.074509807 setrgbcolor
newpath
275.57744 354.33778 moveto
313.25792 108.06888 337.48109 110.76034 337.48109 110.76034 curveto
319.98658 108.06888 lineto
350.93841 97.303027 lineto
361.70426 121.5262 lineto
346.90122 114.79754 lineto
346.90122 114.79754 339.17307 132.01717 330.75244 164.58961 curveto
289.2067 325.29566 297.10914 357.02924 297.10914 357.02924 curveto
eofill
grestore
0 0 0 setrgbcolor
[] 0 setdash
1 setlinewidth
0 setlinejoin
0 setlinecap
newpath
275.57744 354.33778 moveto
313.25792 108.06888 337.48109 110.76034 337.48109 110.76034 curveto
319.98658 108.06888 lineto
350.93841 97.303027 lineto
361.70426 121.5262 lineto
346.90122 114.79754 lineto
346.90122 114.79754 339.17307 132.01717 330.75244 164.58961 curveto
289.2067 325.29566 297.10914 357.02924 297.10914 357.02924 curveto
stroke
gsave
0.17254902 0.9254902 0.074509807 setrgbcolor
newpath
275.57744 353.68351 moveto
313.25792 599.95241 337.48109 597.26094 337.48109 597.26094 curveto
319.98658 599.95241 lineto
350.93841 610.71826 lineto
361.70426 586.49509 lineto
346.90122 593.22375 lineto
346.90122 593.22375 339.17307 576.00412 330.75244 543.43168 curveto
289.2067 382.72563 297.10914 350.99205 297.10914 350.99205 curveto
eofill
grestore
0 0 0 setrgbcolor
[] 0 setdash
1 setlinewidth
0 setlinejoin
0 setlinecap
newpath
275.57744 353.68351 moveto
313.25792 599.95241 337.48109 597.26094 337.48109 597.26094 curveto
319.98658 599.95241 lineto
350.93841 610.71826 lineto
361.70426 586.49509 lineto
346.90122 593.22375 lineto
346.90122 593.22375 339.17307 576.00412 330.75244 543.43168 curveto
289.2067 382.72563 297.10914 350.99205 297.10914 350.99205 curveto
stroke
grestore
showpage
%%EOF
